polcod,polvar,polval,srtseq,rtstr1,rtstr2,rtnum1,rtnum2,rtflt1,rtflt2,moddte,mod_usr_id,grp_nam
VAR-REPORTS-LABELS,MH10-SHIP-LABEL,ARECOD-AND-PRINTER,1,,,,,,,,,PR46107
VAR-REPORTS-LABELS,MH10-SHIP-LABEL,ARECOD-WITH-PRINTER-LOC,1,,,,,,,,,PR46107
VAR-REPORTS-LABELS,MH10-SHIP-LABEL,ENABLED,1,,,1,,,,,,PR46107
VAR-REPORTS-LABELS,MH10-SHIP-LABEL,PRINTER-LOC-AND-PRINTER,1,,,,,,,,,PR46107
