polcod,polvar,polval,srtseq,rtstr1,rtstr2,rtnum1,rtnum2,rtflt1,rtflt2,moddte,mod_usr_id,grp_nam

INVADJOPR,MISCELLANEOUS,SUMMARIZE-PLAY-ON,100,uc_bldg_id,,0,,,,,,les_data
HOST-TRANS,AREA-MOVEMENT-TRANID,XXXX_WEXP,0,RVS-RCP,,0,,,,,,les_data
HOST-TRANS,AREA-MOVEMENT-TRANID,XXXX_LIN,0,INV-ADJ-WO,,1,,,,,,les_data
HOST-TRANS,AREA-MOVEMENT-TRANID,8607-CONS_XXXX,0,INV-ADJ,,1,,,,,,les_data
HOST-TRANS,AREA-MOVEMENT-TRANID,XXXX_8607-CONS,0,INV-ADJ,,1,,,,,,les_data

VAR-SAP-CONVERSION,RP_TO_SAP_REASON_CODE,ZD,0,ZD,,,,,,,,les_data
VAR-SAP-CONVERSION,RP_TO_SAP_REASON_CODE,ZT,0,ZT,,,,,,,,les_data

VAR-INTEGRATOR,VC_SL_XML_TO_FILE_2,TEMP_PATH,1,tmp,,0,,,,,,les_data
