polcod,polvar,polval,srtseq,rtstr1,rtstr2,rtnum1,rtnum2,rtflt1,rtflt2,moddte,mod_usr_id,grp_nam,wh_id_tmpl
VAR-REPORTS-LABELS,CASE-PICK-LABEL,ENABLED,0,,,,,,,,,VAR,----
VAR-REPORTS-LABELS,CASE-PICK-LABEL,PRINTER-WRKZON,0,,,,,,,,,VAR,----
VAR-REPORTS-LABELS,CASE-PICK-LABEL,LABEL,0,hopewell_cpick,,,,,,,,VAR,----
VAR-REPORTS-LABELS,CASE-PICK-LABEL,REPLEN-PRINTER,0,,,,,,,,,VAR,----
VAR-REPORTS-LABELS,WRKREF-LABEL,ENABLED,0,,,,,,,,,VAR,----
VAR-REPORTS-LABELS,WRKREF-LABEL,LABEL,0,hopewell_wrkref,,,,,,,,VAR,----
VAR-REPORTS-LABELS,PICK-ZONE-LABEL,ENABLED,0,,,,,,,,,VAR,----
VAR-REPORTS-LABELS,PICK-ZONE-LABEL,LABEL,0,hopewell_pckzone,,,,,,,,VAR,----
