colnam,colval,locale_id,lngdsc,short_dsc,grp_nam
rpt_id,var-RecvTruckSummary,US_ENGLISH,Bi-Lingual Received Truck Inventory Summary Report,var-RecvTruckSummary,PR44609
rpt_id,var-RecvTruckSummary,FRENCH,Bi-Lingual Received Truck Inventory Summary Report,var-RecvTruckSummary,PR44609
