colnam,colval,locale_id,lngdsc,short_dsc,grp_nam
invsts,2,US_ENGLISH,Off Quality,Low Quality,PR46873
invsts,3,US_ENGLISH,Off Quality - Unshippable,Unshippable,PR46873
invsts,4,US_ENGLISH,Off Quality - Unusable,Unusable,PR46873
invsts,BRFB,US_ENGLISH,Breakage Food Bank,Breakage Food Bank,PR46873
invsts,BRKG,US_ENGLISH,Breakage,Breakage,PR46873
invsts,BRRE,US_ENGLISH,Received Damage,Received Damage,PR46873
invsts,BYPS,US_ENGLISH,Move to Bypass,Move to Bypass,PR46873
invsts,C120,US_ENGLISH,Auto Prod Hold 120 hrs CAL,120 hr hold CAL,PR46873
invsts,CH48,US_ENGLISH,Auto Prod Hold 48 hr CAL,48 hr hold CAL,PR46873
invsts,CORR,US_ENGLISH,Ret. to Prod. Correction,correction,PR46873
invsts,CRDM,US_ENGLISH,Carrier Damage,Carrier Damage,PR46873
invsts,CRTN,US_ENGLISH,Return,Return,PR46873
invsts,DASA,US_ENGLISH,Damage Salvage,Damage Salvage,PR46873
invsts,DISP,US_ENGLISH,Destruction,Destruction,PR46873
invsts,DONA,US_ENGLISH,Donations,Donations,PR46873
invsts,EXPO,US_ENGLISH,Export,Export,PR46873
invsts,FS25,US_ENGLISH,Food Service - 25 days,25 day FS,PR46873
invsts,H024,US_ENGLISH,Auto 24 hr hold,24hr Hold,PR46873
invsts,H036,US_ENGLISH,Auto Hold Production 36 hr,36 hr hold,PR46873
invsts,H048,US_ENGLISH,Reclass to H048,Reclass to H048,PR46873
invsts,H072,US_ENGLISH,Auto hold Production 72 hr,72 hr Hold,PR46873
invsts,H088,US_ENGLISH,Reclass to H088,H088,PR46873
invsts,H096,US_ENGLISH,Auto Prod Hold 96 hour,96 hr hold,PR46873
invsts,H120,US_ENGLISH,Reclass to H120,Reclass to H120,PR46873
invsts,H168,US_ENGLISH,Auto Prod Hold 168 hrs,168 hr hold,PR46873
invsts,H192,US_ENGLISH,Auto production hold 192 hr,192 hr hold,PR46873
invsts,H240,US_ENGLISH,Auto Production hold 240 hr,240 hr hold,PR46873
invsts,H288,US_ENGLISH,Auto Prod Hold 288 hrs,288 hr hold,PR46873
invsts,H336,US_ENGLISH,Auto Prod Hold 336 hrs,336 hr hold,PR46873
invsts,H700,US_ENGLISH,Production Hold 30 day,30 day hold,PR46873
invsts,HOLD,US_ENGLISH,Hold,Hold,PR46873
invsts,HOSO,US_ENGLISH,Special Order,hold special orders,PR46873
invsts,MCLB,US_ENGLISH,Micro Lab Codourg,Cob. Hold,PR46873
invsts,MIRF,US_ENGLISH,Inventory Adj - from co pak,Mirf,PR46873
invsts,MRRF,US_ENGLISH,Inventory Adj + from Co Pak,Mrrf,PR46873
invsts,P,US_ENGLISH,Put Aside Inventory,Put Aside,PR46873
invsts,Q3,US_ENGLISH,Q3,Q3,PR46873
invsts,QA,US_ENGLISH,QA,QA,PR46873
invsts,REAL,US_ENGLISH,Red Alert Finished Goods,Red Alert,PR46873
invsts,REPK,US_ENGLISH,Repacker,Repacker,PR46873
invsts,RORR,US_ENGLISH,CUSTOMER RECALL RETURN,RECALL RETURN,PR46873
invsts,RT30,US_ENGLISH,Stop Ship to Local Branch,Stop Ship to LocalBr,PR46873
invsts,RT40,US_ENGLISH,Retail 40 days,RT 40,PR46873
invsts,RT50,US_ENGLISH,Stop Ship to Customer,Stop Ship to Cust,PR46873
invsts,RWRK,US_ENGLISH,Rework,Rework,PR46873
invsts,SHLD,US_ENGLISH,Shipping on Hold - USBL,SHIP HOLD USBL,PR46873
invsts,SHOC,US_ENGLISH,Shipping on Hold - UNSLBL,SHIP HOLD - UNSL,PR46873
invsts,SHOR,US_ENGLISH,SHort - Claim Process,SHORT - CLAIMS,PR46873
invsts,SSBD,US_ENGLISH,Stop Ship By Date,Stop Ship,PR46873
invsts,TESP,US_ENGLISH,Test Product - USBL,Test Product - USBL,PR46873
invsts,UNSL,US_ENGLISH,Unsellable Product,Unsellable,PR46873
invsts,USBL,US_ENGLISH,Useable,Useable,PR46873
invsts,VARI,US_ENGLISH,Variance Move,Variance,PR46873
