opt_nam,opt_typ,pmsn_mask,ena_flg,exec_nam,exec_parm,btn_img_id,ath_grp_nam,addon_id,grp_nam
Var-PackingList-v2,C,-1,1,Var-PackingList-v2,,,,,
Var-PicksheetReport-v2,C,-1,1,Var-PicksheetReport-v2,,,,,
