mls_id,locale_id,prod_id,appl_id,frm_id,vartn,srt_seq,cust_lvl,mls_text,grp_nam

ttlUC-RDTBLDGMNT,US_ENGLISH,LES,LES,LES,LES,0,10,RDT Building Association,les_data
UC-RDTBLDGMNT,US_ENGLISH,LES,LES,LES,LES,0,10,RDT Building Association,les_data

