mls_id,locale_id,prod_id,appl_id,frm_id,vartn,srt_seq,cust_lvl,mls_text,grp_nam
vc_age_window_1,US_ENGLISH,LES,prtmstdfltmnt,prtmstmnt,LES,0,10,Age Window 1,PR46929
vc_age_window_2,US_ENGLISH,LES,prtmstdfltmnt,prtmstmnt,LES,0,10,Age Window 2,PR46929
vc_age_window_3,US_ENGLISH,LES,prtmstdfltmnt,prtmstmnt,LES,0,10,Age Window 3,PR46929
vc_age_window_4,US_ENGLISH,LES,prtmstdfltmnt,prtmstmnt,LES,0,10,Age Window 4,PR46929
vc_age_window_5,US_ENGLISH,LES,prtmstdfltmnt,prtmstmnt,LES,0,10,Age Window 5,PR46929
vc_lbl_date_type,US_ENGLISH,LES,prtmstdfltmnt,prtmstmnt,LES,0,10,Lbl Date Type,PR46929
vc_auto_reclass,US_ENGLISH,LES,prtmstdfltmnt,prtmstmnt,LES,0,10,Auto Reclass,PR46929
