mls_id,locale_id,prod_id,appl_id,frm_id,vartn,srt_seq,cust_lvl,mls_text,grp_nam
uc_mgp_dstloc,US_ENGLISH,LES,LES,LES,LES,0,0,Destination Location,PR62042
dstloc,US_ENGLISH,LES,LES,FLUID_LOAD,RF,0,0,Dst:,dcs_rdt_fld
dstloc,US_ENGLISH,LES,LES,LES,LES,0,0,Destination Location,dcs_fieldnames
dstloc,US_ENGLISH,LES,LES,LES,RF,0,0,Dst:,dcs_rdt_fld
dstloc,US_ENGLISH,LES,LES,PUT_TO_STORE,RF,0,0,Loc:,dcs_rdt_fld
dstloc,US_ENGLISH,LES,LES,UNDIR_UNLOAD_TRAILER,RF,0,0,Dst Loc:,dcs_rdt_fld
dstloc,US_ENGLISH,LES,LES,shpdckstagelane,LES,0,0,New Staging Lane,dcs_fieldnames
dstloc,US_ENGLISH,LES,LES,shpspltstopseal,LES,0,0,New Staging Lane,dcs_fieldnames
dstloc,US_ENGLISH,LES,RPWEB,wmd|shpdckstagelane,LES,0,0,New Staging Lane,dcsweb_fieldnames
dstloc,US_ENGLISH,LES,stktrnopr,LES,LES,0,0,Location,dcs_fieldnames
lodnum,US_ENGLISH,LES,LES,BUILD_PALLET,RF,0,0,Existing Load Num:,dcs_rdt_fld
lodnum,US_ENGLISH,LES,LES,IDENTIFY_LOAD,RF,0,0,Load:,dcs_rdt_fld
lodnum,US_ENGLISH,LES,LES,LES,LES,0,0,Load Number,sal_les_mls_cat_fieldnames
lodnum,US_ENGLISH,LES,LES,LES,RF,0,0,Lod:,dcs_rdt_fld
lodnum,US_ENGLISH,LES,LES,LES,RF,1,0,Load Num:,dcs_rdt_fld
lodnum,US_ENGLISH,LES,LES,LES,RF,2,0,Load:,dcs_rdt_fld
lodnum,US_ENGLISH,LES,LES,LES,RF,3,0,Lod:,dcs_rdt_fld
lodnum,US_ENGLISH,LES,LES,LES,RF,4,0,Ld:,dcs_rdt_fld
lodnum,US_ENGLISH,LES,LES,PICKUP_A,RF,0,0,Load ID:,dcs_rdt_fld
lodnum,US_ENGLISH,LES,LES,PICKUP_A,RF,1,0,Lod:,dcs_rdt_fld
lodnum,US_ENGLISH,LES,LES,PICKUP_A,RF,2,0,ID:,dcs_rdt_fld
lodnum,US_ENGLISH,LES,LES,PUTAWAY_LOAD,RF,0,0,Load:,dcs_rdt_fld
lodnum,US_ENGLISH,LES,LES,PUTAWAY_LOAD,RF,1,0,Lod:,dcs_rdt_fld
lodnum,US_ENGLISH,LES,LES,UNDIR_RACKQUIZ,RF,0,0,Identifier:,dcs_rdt_fld
ship_id,US_ENGLISH,LES,LES,LES,LES,0,0,Shipment ID,sal_les_mls_cat_fieldnames
ship_id,US_ENGLISH,LES,LES,LES,RF,0,0,Ship ID:,dcs_rdt_fld
wh_id,US_ENGLISH,LES,LES,LES,LES,0,0,Warehouse ID,dcs_moca_reports
wh_id,US_ENGLISH,LES,LES,LES,LES,1,0,Warehouse ID,mtf_data
wh_id,US_ENGLISH,LES,LES,LES,RF,0,0,Warehouse ID:,dcs_rdt_fld
wh_id,US_ENGLISH,LES,LES,LMAOQualityErrorFrm,LES,0,0,Warehouse ID,lm_les_mls_cat_fieldnames
wh_id,US_ENGLISH,LES,LES,LMAisleAreaFrm,LES,0,0,Warehouse ID,lm_les_mls_cat_fieldnames
wh_id,US_ENGLISH,LES,LES,LMLocContFrm,LES,0,0,Warehouse ID,lm_les_mls_cat_fieldnames
wh_id,US_ENGLISH,LES,LES,LMMachineFrm,LES,0,0,Warehouse ID,lm_les_mls_cat_fieldnames
wh_id,US_ENGLISH,LES,LES,LMObsDataHstDspFrm,LES,0,0,Warehouse ID,lm_les_mls_cat_fieldnames
wh_id,US_ENGLISH,LES,LES,LMPckErrFrm,LES,0,0,Warehouse ID,lm_les_mls_cat_fieldnames
wh_id,US_ENGLISH,LES,LES,LMQualityProfileMntFrm,LES,0,0,Default,lm_les_mls_cat_fieldnames
wh_id,US_ENGLISH,LES,LES,LMUsrObsHstDspFrm,LES,0,0,Warehouse ID,lm_les_mls_cat_fieldnames
wh_id,US_ENGLISH,LES,LES,LMUsrObservationDspFrm,LES,0,0,Warehouse ID,lm_les_mls_cat_fieldnames
wh_id,US_ENGLISH,LES,LES,LMUsrObservationFrm,LES,0,0,Warehouse ID,lm_les_mls_cat_fieldnames
wh_id,US_ENGLISH,LES,LES,MNT_INVSERVICE,RF,0,0,Warehouse ID:,dcs_rdt_fld
wh_id,US_ENGLISH,LES,LES,MNT_INVSERVICE,RF,1,0,WhID:,dcs_rdt_fld
wh_id,US_ENGLISH,LES,LES,whservmnt,whservcopy,0,0,New Warehouse ID,dcs_fieldnames
wh_id,US_ENGLISH,LES,RPWEB,LES,LES,0,0,Warehouse ID,lm_les_mls_cat_fieldnames
arecod,US_ENGLISH,LES,LES,AreWipExprWiz,LES,0,0,Expected Receipt Area,dcs_fieldnames
arecod,US_ENGLISH,LES,LES,LES,LES,0,0,Area,dcs_fieldnames
arecod,US_ENGLISH,LES,LES,LES,RF,0,0,Area Code:,dcs_rdt_fld
arecod,US_ENGLISH,LES,LES,alcsrchpathmnt,LES,0,0,Area,dcs_fieldnames
arecod,US_ENGLISH,LES,aremstmnt,LES,LES,0,0,Area Code,dcs_fieldnames
arecod,US_ENGLISH,LES,aremstmnt,arecopy,LES,0,0,New Area Code,dcs_fieldnames
arecod,US_ENGLISH,LES,rcvArrive,LES,LES,0,0,Expected Receipt Area,dcs_fieldnames
car_move_id,US_ENGLISH,LES,LES,LES,LES,0,0,Carrier Move ID,dcs_fieldnames
car_move_id,US_ENGLISH,LES,LES,LES,RF,0,0,Carrier Move:,dcs_rdt_fld
car_move_id,US_ENGLISH,LES,LES,UNDIR_DISPATCH_TRAILER,RF,0,0,Car Mov:,dcs_rdt_fld
car_move_id,US_ENGLISH,LES,shpalocopr,ordalocinfo,LES,0,10,LOAD NUMBER,
expire_dte,US_ENGLISH,LES,LES,LES,LES,0,0,Expiration Date,dcs_fieldnames
expire_dte,US_ENGLISH,LES,LES,LES,RF,1,0,Exp Date:,dcs_rdt_flg
expire_dte,US_ENGLISH,LES,LES,LES,RF,2,0,Exp:,dcs_rdt_flg
invsts,US_ENGLISH,LES,LES,LES,LES,0,0,Inventory Status,dcs_fieldnames
invsts,US_ENGLISH,LES,LES,LES,RF,0,0,Sts:,dcs_rdt_fld
invsts,US_ENGLISH,LES,LES,LES,RF,1,0,St:,dcs_rdt_fld
lngdsc,US_ENGLISH,LES,LES,LES,LES,0,0,Description,lm_les_mls_cat_fieldnames
lngdsc,US_ENGLISH,LES,LES,LES,RF,0,0,Desc:,dcs_rdt_fld
lngdsc,US_ENGLISH,LES,LES,LES,RF,1,0,Desc:,dcs_rdt_fld
lngdsc,US_ENGLISH,LES,LES,LMQltyErrSrcDspFrm,LES,0,0,Error Source,lm_les_mls_cat_fieldnames
lngdsc,US_ENGLISH,LES,LES,LMQltyErrSrcFrm,LES,0,0,Error Source,lm_les_mls_cat_fieldnames
lngdsc,US_ENGLISH,LES,LES,SMPatternFrm,LES,0,0,Description,sm_les_mls_cat_fieldnames
lngdsc,US_ENGLISH,LES,prtftpmstdfltmnt,prtftpcopy,LES,0,0,New Description,dcs_nondb_fieldnames
lngdsc,US_ENGLISH,LES,prtftpmstovrdmnt,prtftpcopy,LES,0,0,New Description,dcs_nondb_fieldnames
lodnum,US_ENGLISH,LES,LES,BUILD_PALLET,RF,0,0,Existing Load Num:,dcs_rdt_fld
lodnum,US_ENGLISH,LES,LES,IDENTIFY_LOAD,RF,0,0,Load:,dcs_rdt_fld
lodnum,US_ENGLISH,LES,LES,LES,LES,0,0,Load Number,sal_les_mls_cat_fieldnames
lodnum,US_ENGLISH,LES,LES,LES,RF,0,0,Lod:,dcs_rdt_fld
lodnum,US_ENGLISH,LES,LES,LES,RF,1,0,Load Num:,dcs_rdt_fld
lodnum,US_ENGLISH,LES,LES,LES,RF,2,0,Load:,dcs_rdt_fld
lodnum,US_ENGLISH,LES,LES,LES,RF,3,0,Lod:,dcs_rdt_fld
lodnum,US_ENGLISH,LES,LES,LES,RF,4,0,Ld:,dcs_rdt_fld
lodnum,US_ENGLISH,LES,LES,PICKUP_A,RF,0,0,Load ID:,dcs_rdt_fld
lodnum,US_ENGLISH,LES,LES,PICKUP_A,RF,1,0,Lod:,dcs_rdt_fld
lodnum,US_ENGLISH,LES,LES,PICKUP_A,RF,2,0,ID:,dcs_rdt_fld
lodnum,US_ENGLISH,LES,LES,PUTAWAY_LOAD,RF,0,0,Load:,dcs_rdt_fld
lodnum,US_ENGLISH,LES,LES,PUTAWAY_LOAD,RF,1,0,Lod:,dcs_rdt_fld
lodnum,US_ENGLISH,LES,LES,UNDIR_RACKQUIZ,RF,0,0,Identifier:,dcs_rdt_fld
ordlin,US_ENGLISH,LES,LES,LES,LES,0,0,Order Line,sal_les_mls_cat_fieldnames
ordnum,US_ENGLISH,LES,LES,LES,LES,0,0,Order Number,sal_les_mls_cat_fieldnames
prt_client_id,US_ENGLISH,LES,LES,GET_SERIAL_NUMBER,RF,3,0,Cli:,dcs_rdt_fld
prt_client_id,US_ENGLISH,LES,LES,LES,LES,0,0,Part Client ID,sal_les_mls_cat_fieldnames
prt_client_id,US_ENGLISH,LES,LES,LES,RF,0,0,Cli:,dcs_rdt_fld
prt_client_id,US_ENGLISH,LES,LES,LES,RF,1,0,Client ID:,dcs_rdt_fld
prt_client_id,US_ENGLISH,LES,LES,LES,RF,2,0,Client:,dcs_rdt_fld
prt_client_id,US_ENGLISH,LES,LES,LES,RF,3,0,Cli:,dcs_rdt_fld
prt_client_id,US_ENGLISH,LES,LES,LES,RF,4,0,Cl:,dcs_rdt_fld
prt_client_id,US_ENGLISH,LES,LES,bldgmstmnt,LES,0,0,Part Client ID Value,dcs_fieldnames
prt_client_id,US_ENGLISH,LES,prtftpmstdfltmnt,prtftpcopy,LES,0,0,New Part Client ID,dcs_nondb_fieldnames
prt_client_id,US_ENGLISH,LES,prtftpmstovrdmnt,prtftpcopy,LES,0,0,New Part Client ID,dcs_nondb_fieldnames
prtdsc,US_ENGLISH,LES,LES,LES,LES,0,0,Part Description,dcs_fieldnames
prtnum,US_ENGLISH,LES,LES,LES,LES,0,0,Part Number,sal_les_mls_cat_fieldnames
prtnum,US_ENGLISH,LES,LES,LES,RF,0,0,Prt:,dcs_rdt_fld
prtnum,US_ENGLISH,LES,LES,LES,RF,1,0,Prt Num:,dcs_rdt_fld
prtnum,US_ENGLISH,LES,LES,LES,RF,2,0,Part:,dcs_rdt_fld
prtnum,US_ENGLISH,LES,LES,LES,RF,3,0,Prt:,dcs_rdt_fld
prtnum,US_ENGLISH,LES,LES,bldgmstmnt,LES,0,0,Part Number Value,dcs_fieldnames
prtnum,US_ENGLISH,LES,prtftpmstdfltmnt,prtftpcopy,LES,0,0,New Part Number,dcs_nondb_fieldnames
prtnum,US_ENGLISH,LES,prtftpmstovrdmnt,prtftpcopy,LES,0,0,New Part Number,dcs_nondb_fieldnames
ship_id,US_ENGLISH,LES,LES,LES,LES,0,0,Shipment ID,sal_les_mls_cat_fieldnames
ship_id,US_ENGLISH,LES,LES,LES,RF,0,0,Ship ID:,dcs_rdt_fld
stoloc,US_ENGLISH,LES,LES,LES,LES,0,0,Storage Location,sal_les_mls_cat_fieldnames
stoloc,US_ENGLISH,LES,LES,LES,RF,0,0,Loc:,dcs_rdt_fld
stoloc,US_ENGLISH,LES,LES,LES,RF,1,0,Loc:,dcs_rdt_fld
stoloc,US_ENGLISH,LES,LES,apptmnt,LES,0,0,Dock Door,dcs_fieldnames
stoloc,US_ENGLISH,LES,LES,planwave,LES,0,0,Dock Door,dcs_fieldnames
stoloc,US_ENGLISH,LES,LES,shpstgtrnopr,LES,0,0,New Staging Lane,dcs_nondb_fieldnames
stoloc,US_ENGLISH,LES,LES,trlrmgtopr,LES,0,0,Shipment Location,dcs_nondb_fieldnames
stoloc,US_ENGLISH,LES,RPWEB,wmd|planwave,LES,0,0,Dock Door,dcsweb_fieldnames
stoloc,US_ENGLISH,LES,RPWEB,wmd|trlrmgtopr,LES,0,0,Shipment Location,dcsweb_nondb_fieldnames
stoloc,US_ENGLISH,LES,shpspltopr,LES,LES,0,0,Dock Door,dcs_fieldnames
untqty,US_ENGLISH,LES,LES,COUNT_BACK,RF,0,0,Pck Qty:,dcs_rdt_fld
untqty,US_ENGLISH,LES,LES,LES,LES,0,0,Unit Quantity,dcs_fieldnames
untqty,US_ENGLISH,LES,LES,LES,RF,0,0,Q:,dcs_rdt_fld
untqty,US_ENGLISH,LES,LES,UNDIR_CASE_TRANSFER,RF,0,0,Q:,dcs_rdt_fld
untqty,US_ENGLISH,LES,LES,UNDIR_TRANSFER,RF,0,0,Q:,dcs_rdt_fld
untqty,US_ENGLISH,LES,LES,obsoprtopr,LES,0,0,Available Quantity,dcs_fieldnames
wh_id,US_ENGLISH,LES,LES,LES,LES,0,0,Warehouse ID,dcs_moca_reports
wh_id,US_ENGLISH,LES,LES,LES,LES,1,0,Warehouse ID,mtf_data
wh_id,US_ENGLISH,LES,LES,LES,RF,0,0,Warehouse ID:,dcs_rdt_fld
wh_id,US_ENGLISH,LES,LES,LMAOQualityErrorFrm,LES,0,0,Warehouse ID,lm_les_mls_cat_fieldnames
wh_id,US_ENGLISH,LES,LES,LMAisleAreaFrm,LES,0,0,Warehouse ID,lm_les_mls_cat_fieldnames
wh_id,US_ENGLISH,LES,LES,LMLocContFrm,LES,0,0,Warehouse ID,lm_les_mls_cat_fieldnames
wh_id,US_ENGLISH,LES,LES,LMMachineFrm,LES,0,0,Warehouse ID,lm_les_mls_cat_fieldnames
wh_id,US_ENGLISH,LES,LES,LMObsDataHstDspFrm,LES,0,0,Warehouse ID,lm_les_mls_cat_fieldnames
wh_id,US_ENGLISH,LES,LES,LMPckErrFrm,LES,0,0,Warehouse ID,lm_les_mls_cat_fieldnames
wh_id,US_ENGLISH,LES,LES,LMQualityProfileMntFrm,LES,0,0,Default,lm_les_mls_cat_fieldnames
wh_id,US_ENGLISH,LES,LES,LMUsrObsHstDspFrm,LES,0,0,Warehouse ID,lm_les_mls_cat_fieldnames
wh_id,US_ENGLISH,LES,LES,LMUsrObservationDspFrm,LES,0,0,Warehouse ID,lm_les_mls_cat_fieldnames
wh_id,US_ENGLISH,LES,LES,LMUsrObservationFrm,LES,0,0,Warehouse ID,lm_les_mls_cat_fieldnames
wh_id,US_ENGLISH,LES,LES,MNT_INVSERVICE,RF,0,0,Warehouse ID:,dcs_rdt_fld
wh_id,US_ENGLISH,LES,LES,MNT_INVSERVICE,RF,1,0,WhID:,dcs_rdt_fld
wh_id,US_ENGLISH,LES,LES,whservmnt,whservcopy,0,0,New Warehouse ID,dcs_fieldnames
wh_id,US_ENGLISH,LES,RPWEB,LES,LES,0,0,Warehouse ID,lm_les_mls_cat_fieldnames
allocated_qty,US_ENGLISH,LES,LES,LES,LES,0,10,Allocated Quantity,PR62042
car_move_id,US_ENGLISH,LES,LES,LES,LES,0,0,Carrier Move ID,dcs_fieldnames
car_move_id,US_ENGLISH,LES,LES,LES,RF,0,0,Carrier Move:,dcs_rdt_fld
car_move_id,US_ENGLISH,LES,LES,UNDIR_DISPATCH_TRAILER,RF,0,0,Car Mov:,dcs_rdt_fld
car_move_id,US_ENGLISH,LES,shpalocopr,ordalocinfo,LES,0,10,LOAD NUMBER,
client_id,US_ENGLISH,LES,LES,INV_ADJUST_IDENTIFY,RF,0,0,Cli:,dcs_rdt_fld
client_id,US_ENGLISH,LES,LES,LES,LES,0,0,Client ID,lm_les_mls_cat_fieldnames
client_id,US_ENGLISH,LES,LES,LES,RF,0,0,Cli:,dcs_rdt_fld
client_id,US_ENGLISH,LES,LES,LES,RF,1,0,Cli:,dcs_rdt_fld
client_id,US_ENGLISH,LES,LES,LMQualityProfileMntFrm,LES,0,0,Default,lm_les_mls_cat_fieldnames
client_id,US_ENGLISH,LES,LES,UNDIR_REVERSE_PRODUCTION,RF,0,0,Cli:,dcs_rdt_fld
client_id,US_ENGLISH,LES,saplocmap,LES,LES,0,0,External System (PK),int_data
client_id,US_ENGLISH,LES,sapstksts,LES,LES,0,0,External Client ID (PK),int_data
client_id,US_ENGLISH,LES,sapstkstsmov,LES,LES,0,0,External Client ID (PK),int_data
invsts_prg,US_ENGLISH,LES,LES,LES,LES,0,0,Inventory Status Progression,dcs_fieldnames
lngdsc,US_ENGLISH,LES,LES,LES,LES,0,0,Description,lm_les_mls_cat_fieldnames
lngdsc,US_ENGLISH,LES,LES,LES,RF,0,0,Desc:,dcs_rdt_fld
lngdsc,US_ENGLISH,LES,LES,LES,RF,1,0,Desc:,dcs_rdt_fld
lngdsc,US_ENGLISH,LES,LES,LMQltyErrSrcDspFrm,LES,0,0,Error Source,lm_les_mls_cat_fieldnames
lngdsc,US_ENGLISH,LES,LES,LMQltyErrSrcFrm,LES,0,0,Error Source,lm_les_mls_cat_fieldnames
lngdsc,US_ENGLISH,LES,LES,SMPatternFrm,LES,0,0,Description,sm_les_mls_cat_fieldnames
lngdsc,US_ENGLISH,LES,prtftpmstdfltmnt,prtftpcopy,LES,0,0,New Description,dcs_nondb_fieldnames
lngdsc,US_ENGLISH,LES,prtftpmstovrdmnt,prtftpcopy,LES,0,0,New Description,dcs_nondb_fieldnames
min_shelf_hrs,US_ENGLISH,LES,LES,LES,LES,0,0,Minimum Shelf Life (Hours),dcs_fieldnames
ordnum,US_ENGLISH,LES,LES,LES,LES,0,0,Order Number,sal_les_mls_cat_fieldnames
ordqty,US_ENGLISH,LES,LES,LES,LES,0,0,Ordered Quantity,dcs_fieldnames
prtnum,US_ENGLISH,LES,LES,LES,LES,0,0,Part Number,sal_les_mls_cat_fieldnames
prtnum,US_ENGLISH,LES,LES,LES,RF,0,0,Prt:,dcs_rdt_fld
prtnum,US_ENGLISH,LES,LES,LES,RF,1,0,Prt Num:,dcs_rdt_fld
prtnum,US_ENGLISH,LES,LES,LES,RF,2,0,Part:,dcs_rdt_fld
prtnum,US_ENGLISH,LES,LES,LES,RF,3,0,Prt:,dcs_rdt_fld
prtnum,US_ENGLISH,LES,LES,bldgmstmnt,LES,0,0,Part Number Value,dcs_fieldnames
prtnum,US_ENGLISH,LES,prtftpmstdfltmnt,prtftpcopy,LES,0,0,New Part Number,dcs_nondb_fieldnames
prtnum,US_ENGLISH,LES,prtftpmstovrdmnt,prtftpcopy,LES,0,0,New Part Number,dcs_nondb_fieldnames
ship_id,US_ENGLISH,LES,LES,LES,LES,0,0,Shipment ID,sal_les_mls_cat_fieldnames
ship_id,US_ENGLISH,LES,LES,LES,RF,0,0,Ship ID:,dcs_rdt_fld
shpsts,US_ENGLISH,LES,LES,LES,LES,0,0,Shipment Status,dcs_fieldnames
stop_id,US_ENGLISH,LES,LES,LES,LES,0,0,Stop ID,sal_les_mls_cat_fieldnames
stop_id,US_ENGLISH,LES,LES,LES,RF,1,0,Stop:,dcs_rdt_fld
to_alloc_qty,US_ENGLISH,LES,LES,LES,LES,0,10,To Allocate Quantity,PR62042
wh_id,US_ENGLISH,LES,LES,LES,LES,0,0,Warehouse ID,dcs_moca_reports
wh_id,US_ENGLISH,LES,LES,LES,LES,1,0,Warehouse ID,mtf_data
wh_id,US_ENGLISH,LES,LES,LES,RF,0,0,Warehouse ID:,dcs_rdt_fld
wh_id,US_ENGLISH,LES,LES,LMAOQualityErrorFrm,LES,0,0,Warehouse ID,lm_les_mls_cat_fieldnames
wh_id,US_ENGLISH,LES,LES,LMAisleAreaFrm,LES,0,0,Warehouse ID,lm_les_mls_cat_fieldnames
wh_id,US_ENGLISH,LES,LES,LMLocContFrm,LES,0,0,Warehouse ID,lm_les_mls_cat_fieldnames
wh_id,US_ENGLISH,LES,LES,LMMachineFrm,LES,0,0,Warehouse ID,lm_les_mls_cat_fieldnames
wh_id,US_ENGLISH,LES,LES,LMObsDataHstDspFrm,LES,0,0,Warehouse ID,lm_les_mls_cat_fieldnames
wh_id,US_ENGLISH,LES,LES,LMPckErrFrm,LES,0,0,Warehouse ID,lm_les_mls_cat_fieldnames
wh_id,US_ENGLISH,LES,LES,LMQualityProfileMntFrm,LES,0,0,Default,lm_les_mls_cat_fieldnames
wh_id,US_ENGLISH,LES,LES,LMUsrObsHstDspFrm,LES,0,0,Warehouse ID,lm_les_mls_cat_fieldnames
wh_id,US_ENGLISH,LES,LES,LMUsrObservationDspFrm,LES,0,0,Warehouse ID,lm_les_mls_cat_fieldnames
wh_id,US_ENGLISH,LES,LES,LMUsrObservationFrm,LES,0,0,Warehouse ID,lm_les_mls_cat_fieldnames
wh_id,US_ENGLISH,LES,LES,MNT_INVSERVICE,RF,0,0,Warehouse ID:,dcs_rdt_fld
wh_id,US_ENGLISH,LES,LES,MNT_INVSERVICE,RF,1,0,WhID:,dcs_rdt_fld
wh_id,US_ENGLISH,LES,LES,whservmnt,whservcopy,0,0,New Warehouse ID,dcs_fieldnames
wh_id,US_ENGLISH,LES,RPWEB,LES,LES,0,0,Warehouse ID,lm_les_mls_cat_fieldnames
allocated_qty,US_ENGLISH,LES,LES,LES,LES,0,10,Allocated Quantity,PR62042
to_alloc_qty,US_ENGLISH,LES,LES,LES,LES,0,10,To Allocate Quantity,PR62042
err89050,US_ENGLISH,LES,LES,LES,LES,0,10,No shipment line records found to match the order [^ordnum^] for part [^prtnum^].,PR62042
err89051,US_ENGLISH,LES,LES,LES,LES,0,10,Unable to pull any inventory detail records for load number [^lodnum^].,PR62042
err89052,US_ENGLISH,LES,LES,LES,LES,0,10,Pallet control is enabled.  Please disable for prebuilt inventory.,PR62042
err89053,US_ENGLISH,LES,LES,LES,LES,0,10,Unable to find a match on quantity [^pckqty^].,PR62042
err89054,US_ENGLISH,LES,LES,LES,LES,0,10,Unable to find a match on MSL.,PR62042
err89055,US_ENGLISH,LES,LES,LES,LES,0,10,Unable to find a match on inventory status progression [^invsts^].,PR62042
err89056,US_ENGLISH,LES,LES,LES,LES,0,10,Unable to find a match on part number [^prtnum^].,PR62042
err89057,US_ENGLISH,LES,LES,LES,LES,0,10,Load number [^lodnum^] is not in the prebuilt allocation area [^arecod^].,PR62042
err89058,US_ENGLISH,LES,LES,LES,LES,0,10,Destination location [^dstloc^] is not a ship stage location.,PR62042
err89059,US_ENGLISH,LES,LES,LES,LES,0,10,Staging lane [^dstloc^] has a different RESCOD already assigned.,PR62042
err89060,US_ENGLISH,LES,LES,L,LES,0,10,Pallet Already Tied To Another Order,PR62042
