mls_id,locale_id,prod_id,appl_id,frm_id,vartn,srt_seq,cust_lvl,mls_text,grp_nam
adddte,US_ENGLISH,LES,LES,LES,LES,0,0,Date Added,dcs_fieldnames
adrnam,US_ENGLISH,LES,LES,LES,LES,0,0,Address Name,mcs_les_mls_cat_fieldnames
aesitn,US_ENGLISH,LES,LES,LES,LES,0,0,AES Number,dcs_fieldnames
alcdte,US_ENGLISH,LES,LES,LES,LES,0,0,Allocation Date,dcs_fieldnames
arc_src,US_ENGLISH,LES,LES,LES,LES,0,0,Archive Source,sal_les_mls_cat_fieldnames
arcdte,US_ENGLISH,LES,LES,LES,LES,0,0,Archive Date,sal_les_mls_cat_fieldnames
carcod,US_ENGLISH,LES,LES,CNFRM_SERV_VAL,RF,0,0,Car Cod:,dcs_rdt_fld
carcod,US_ENGLISH,LES,LES,CONFIRM_SERV,RF,0,0,Car Cod:,dcs_rdt_fld
carcod,US_ENGLISH,LES,LES,CONFIRM_SERV_INS,RF,0,0,Car Cod:,dcs_rdt_fld
carcod,US_ENGLISH,LES,LES,LES,LES,0,0,Carrier,dcs_fieldnames
carcod,US_ENGLISH,LES,LES,LES,RF,0,0,Carrier Code:,dcs_rdt_fld
carcod,US_ENGLISH,LES,LES,LES,RF,1,0,Car Cod:,dcs_rdt_fld
cargrp,US_ENGLISH,LES,LES,LES,LES,0,0,Carrier Group,sal_les_mls_cat_fieldnames
client_id,US_ENGLISH,LES,LES,LES,LES,0,0,Client ID,mcs_les_mls_cat_fieldnames
client_id,US_ENGLISH,LES,LES,LES,RF,0,0,Client ID:,dcs_rdt_fld
client_id,US_ENGLISH,LES,LES,LES,RF,1,0,Cli:,dcs_rdt_fld
client_id,US_ENGLISH,LES,LES,UNDIR_REVERSE_PRODUCTION,RF,0,0,Cli:,dcs_rdt_fld
client_id,US_ENGLISH,LES,saplocmap,LES,LES,0,0,External System (PK),int_data
client_id,US_ENGLISH,LES,sapstksts,LES,LES,0,0,External Client ID (PK),int_data
client_id,US_ENGLISH,LES,sapstkstsmov,LES,LES,0,0,External Client ID (PK),int_data
crncy_code,US_ENGLISH,LES,LES,LES,LES,0,0,Currency Code,mcs_les_mls_cat_fieldnames
def_shp_flg,US_ENGLISH,LES,LES,LES,LES,0,0,Deferred Shipment Change,dcs_nondb_fieldnames
descgoods,US_ENGLISH,LES,LES,LES,LES,0,0,Description of Goods,dcs_fieldnames
dispatch_code,US_ENGLISH,LES,LES,LES,LES,0,0,BTO Dispatch Code,dcs_fieldnames
doc_num,US_ENGLISH,LES,LES,LES,LES,0,0,Document Number,dcs_fieldnames
doc_num,US_ENGLISH,LES,LES,LES,RF,0,0,BOL:,dcs_rdt_fld
docind,US_ENGLISH,LES,LES,LES,LES,0,0,Document Indicator,dcs_fieldnames
dstare,US_ENGLISH,LES,LES,AreRelRuleModalWiz,LES,0,0,To Area,dcs_fieldnames
dstare,US_ENGLISH,LES,LES,LES,LES,0,0,Destination Area,dcs_fieldnames
dstloc,US_ENGLISH,LES,LES,FLUID_LOAD,RF,0,0,Dst:,dcs_rdt_fld
dstloc,US_ENGLISH,LES,LES,LES,LES,0,0,Destination Location,dcs_fieldnames
dstloc,US_ENGLISH,LES,LES,PUT_TO_STORE,RF,0,0,Loc:,dcs_rdt_fld
dstloc,US_ENGLISH,LES,LES,UNDIR_UNLOAD_TRAILER,RF,0,0,Dst Loc:,dcs_rdt_fld
dstloc,US_ENGLISH,LES,LES,shpdckstagelane,LES,0,0,New Staging Lane,dcs_fieldnames
dstloc,US_ENGLISH,LES,LES,shpspltstopseal,LES,0,0,New Staging Lane,dcs_fieldnames
dstloc,US_ENGLISH,LES,stktrnopr,LES,LES,0,0,Location,dcs_fieldnames
early_dlvdte,US_ENGLISH,LES,LES,LES,LES,0,0,Early Delivery Date,dcs_fieldnames
early_shpdte,US_ENGLISH,LES,LES,LES,LES,0,0,Early Ship Date,dcs_fieldnames
entdte,US_ENGLISH,LES,LES,LES,LES,0,0,Date Entered,dcs_fieldnames
export_typ,US_ENGLISH,LES,LES,LES,LES,0,0,Export Type,dcs_fieldnames
exprsntxt,US_ENGLISH,LES,LES,LES,LES,0,0,Reason for Export,dcs_fieldnames
frtchg,US_ENGLISH,LES,LES,LES,LES,0,0,Freight Charge,dcs_fieldnames
frtcod,US_ENGLISH,LES,LES,LES,LES,0,0,Freight Code,dcs_fieldnames
frtrte,US_ENGLISH,LES,LES,LES,LES,0,0,Freight Rate,dcs_fieldnames
ftsrnum,US_ENGLISH,LES,LES,LES,LES,0,0,FTSR Number,dcs_fieldnames
host_client_id,US_ENGLISH,LES,LES,LES,LES,0,0,Host Client ID,dcs_fieldnames
host_ext_id,US_ENGLISH,LES,LES,LES,LES,0,0,Host External ID,mcs_les_mls_cat_fieldnames
hub_adr_id,US_ENGLISH,LES,LES,LES,LES,0,0,Hub Address,dcs_fieldnames
hub_arrdte,US_ENGLISH,LES,LES,LES,LES,0,0,Hub Arrive Date,dcs_fieldnames
hub_rate_serv_nam,US_ENGLISH,LES,LES,LES,LES,0,0,Hub Rating Service Name,dcs_fieldnames
in_transit_flg,US_ENGLISH,LES,LES,LES,LES,0,0,In Transit,dcs_fieldnames
late_dlvdte,US_ENGLISH,LES,LES,LES,LES,0,0,Late Delivery Date,dcs_fieldnames
late_shpdte,US_ENGLISH,LES,LES,LES,LES,0,0,Late Ship Date,dcs_fieldnames
lbl_prtdte,US_ENGLISH,LES,LES,LES,LES,0,0,Label Print Date,dcs_fieldnames
loddte,US_ENGLISH,LES,LES,LES,LES,0,0,Loaded Date,dcs_fieldnames
lst_prtdte,US_ENGLISH,LES,LES,LES,LES,0,0,Last Printed Date,dcs_fieldnames
mod_usr_id,US_ENGLISH,LES,LES,LES,LES,0,0,Last Modified By,sal_les_mls_cat_fieldnames
mod_usr_id,US_ENGLISH,LES,LES,invadjappropr,LES,0,0,User ID,dcs_fieldnames
moddte,US_ENGLISH,LES,LES,LES,LES,0,0,Date Last Modified,sal_les_mls_cat_fieldnames
mst_waybill,US_ENGLISH,LES,LES,LES,LES,0,0,Master Waybill Number,dcs_fieldnames
optm_base_cost,US_ENGLISH,LES,LES,LES,LES,0,0,Optimization Basis Cost,dcs_fieldnames
pack_code,US_ENGLISH,LES,LES,LES,LES,0,0,BTO Packing Code,dcs_fieldnames
par_ship_id,US_ENGLISH,LES,LES,LES,LES,0,0,Original Shipment ID,dcs_fieldnames
pln_cmpl_flg,US_ENGLISH,LES,LES,LES,LES,0,0,Plan Complete,dcs_fieldnames
pln_shpsts,US_ENGLISH,LES,LES,LES,LES,0,0,Planning Status,dcs_fieldnames
price_sts,US_ENGLISH,LES,LES,LES,LES,0,0,Price Status,dcs_fieldnames
rrlflg,US_ENGLISH,LES,LES,LES,LES,0,0,Release Remaining Lines,dcs_fieldnames
rt_adr_id,US_ENGLISH,LES,LES,LES,LES,0,0,Route-To Address,dcs_fieldnames
rt_pln_adr_id,US_ENGLISH,LES,LES,LES,LES,0,0,Route To Plan Address ID,dcs_fieldnames
sddflg,US_ENGLISH,LES,LES,LES,LES,0,0,Saturday Delivery,dcs_fieldnames
ses_grp_nam,US_ENGLISH,LES,LES,LES,LES,0,0,Session Group,dcs_fieldnames
ses_tag,US_ENGLISH,LES,LES,LES,LES,0,0,Session Tag,dcs_fieldnames
sf_pln_adr_id,US_ENGLISH,LES,LES,LES,LES,0,0,Ship From Plan Address ID,dcs_fieldnames
src_sys,US_ENGLISH,LES,LES,LES,LES,0,0,Source System,dcs_fieldnames
srvlvl,US_ENGLISH,LES,LES,LES,LES,0,0,Service Level,dcs_fieldnames
stgdte,US_ENGLISH,LES,LES,LES,LES,0,0,Staged Date,dcs_fieldnames
stop_id,US_ENGLISH,LES,LES,LES,LES,0,0,Stop ID,sal_les_mls_cat_fieldnames
stop_id,US_ENGLISH,LES,LES,LES,RF,1,0,Stop:,dcs_rdt_fld
super_ship_flg,US_ENGLISH,LES,LES,LES,LES,0,0,Super Shipment,dcs_fieldnames
super_ship_id,US_ENGLISH,LES,LES,LES,LES,0,0,Super Shipment ID,dcs_fieldnames
tms_group_id,US_ENGLISH,LES,LES,LES,LES,0,0,TMS Group ID,dcs_fieldnames
tot_pkg_qty,US_ENGLISH,LES,LES,LES,LES,0,0,Total Number of Packages,dcs_fieldnames
track_num,US_ENGLISH,LES,LES,LES,LES,0,0,Pro Number,dcs_fieldnames
track_num,US_ENGLISH,LES,LES,LES,RF,0,0,Pro #:,dcs_rdt_fld
wave_set,US_ENGLISH,LES,LES,LES,LES,0,0,Wave Set,dcs_fieldnames
wh_id,US_ENGLISH,LES,LES,LES,LES,0,0,Warehouse ID,dcs_moca_reports
wh_id,US_ENGLISH,LES,LES,LES,LES,1,0,Warehouse ID,mtf_data
wh_id,US_ENGLISH,LES,LES,LES,RF,0,0,Warehouse ID:,dcs_rdt_fld
wh_id,US_ENGLISH,LES,LES,MNT_INVSERVICE,RF,0,0,Warehouse ID:,dcs_rdt_fld
wh_id,US_ENGLISH,LES,LES,MNT_INVSERVICE,RF,1,0,WhID:,dcs_rdt_fld
wh_id,US_ENGLISH,LES,LES,whservmnt,whservcopy,0,0,New Warehouse ID,dcs_fieldnames
zs_line_haul_id,US_ENGLISH,LES,LES,LES,LES,0,0,Line Haul ID,dcs_fieldnames
