mls_id,locale_id,prod_id,appl_id,frm_id,vartn,srt_seq,cust_lvl,mls_text,grp_nam
lotnum,US_ENGLISH,LES,LES,LES,LES,0,0,Lot Number,sal_les_mls_cat_fieldnames
lotnum,US_ENGLISH,LES,LES,LES,RF,0,0,Lot Number:,dcs_rdt_fld
lotnum,US_ENGLISH,LES,LES,LES,RF,1,0,Lot Num:,dcs_rdt_fld
lotnum,US_ENGLISH,LES,LES,LES,RF,2,0,Lot:,dcs_rdt_fld
ordnum,US_ENGLISH,LES,LES,LES,LES,0,0,Order Number,sal_les_mls_cat_fieldnames
prtnum,US_ENGLISH,LES,LES,LES,LES,0,0,Part Number,sal_les_mls_cat_fieldnames
prtnum,US_ENGLISH,LES,LES,LES,RF,0,0,Part Number:,dcs_rdt_fld
prtnum,US_ENGLISH,LES,LES,LES,RF,1,0,Prt Num:,dcs_rdt_fld
prtnum,US_ENGLISH,LES,LES,LES,RF,2,0,Part:,dcs_rdt_fld
prtnum,US_ENGLISH,LES,LES,LES,RF,3,0,Prt:,dcs_rdt_fld
weight,US_ENGLISH,LES,LES,LES,LES,0,0,Weight,dcs_nondb_fieldnames
weight,US_ENGLISH,LES,LES,LES,LES,0,10,Weight(in Kg),
weight,US_ENGLISH,LES,LES,LES,RF,0,0,Weight:,dcs_rdt_fld
 