mls_id,locale_id,prod_id,appl_id,frm_id,vartn,srt_seq,cust_lvl,mls_text,grp_nam
appt_id,US_ENGLISH,LES,LES,LES,LES,0,0,Appointment ID,dcs_fieldnames
arc_src,US_ENGLISH,LES,LES,LES,LES,0,0,Archive Source,sal_les_mls_cat_fieldnames
arcdte,US_ENGLISH,LES,LES,LES,LES,0,0,Archive Date,sal_les_mls_cat_fieldnames
arrdte,US_ENGLISH,LES,LES,LES,LES,0,0,Arrive Date,dcs_fieldnames
autogen_flg,US_ENGLISH,LES,LES,LES,LES,0,0,Auto Generated,dcs_fieldnames
carcod,US_ENGLISH,LES,LES,CNFRM_SERV_VAL,RF,0,0,Car Cod:,dcs_rdt_fld
carcod,US_ENGLISH,LES,LES,CONFIRM_SERV,RF,0,0,Car Cod:,dcs_rdt_fld
carcod,US_ENGLISH,LES,LES,CONFIRM_SERV_INS,RF,0,0,Car Cod:,dcs_rdt_fld
carcod,US_ENGLISH,LES,LES,LES,LES,0,0,Carrier,dcs_fieldnames
carcod,US_ENGLISH,LES,LES,LES,RF,0,0,Carrier Code:,dcs_rdt_fld
carcod,US_ENGLISH,LES,LES,LES,RF,1,0,Car Cod:,dcs_rdt_fld
carcod,US_ENGLISH,LES,LES,VAR_TRAILER_PROPERTIES,LES,0,10,Carcod:,PR70016
client_id,US_ENGLISH,LES,LES,LES,LES,0,0,Client ID,mcs_les_mls_cat_fieldnames
client_id,US_ENGLISH,LES,LES,LES,RF,0,0,Client ID:,dcs_rdt_fld
client_id,US_ENGLISH,LES,LES,LES,RF,1,0,Cli:,dcs_rdt_fld
client_id,US_ENGLISH,LES,LES,UNDIR_REVERSE_PRODUCTION,RF,0,0,Cli:,dcs_rdt_fld
client_id,US_ENGLISH,LES,saplocmap,LES,LES,0,0,External System (PK),int_data
client_id,US_ENGLISH,LES,sapstksts,LES,LES,0,0,External Client ID (PK),int_data
client_id,US_ENGLISH,LES,sapstkstsmov,LES,LES,0,0,External Client ID (PK),int_data
close_dte,US_ENGLISH,LES,LES,LES,LES,0,0,Closed Date,dcs_fieldnames
clsdte,US_ENGLISH,LES,LES,LES,LES,0,0,Completion Date,dcs_fieldnames
clsdte,US_ENGLISH,LES,LES,rcvtrkopr,LES,0,0,Closed Date,dcs_fieldnames
crncy_code,US_ENGLISH,LES,LES,LES,LES,0,0,Currency Code,mcs_les_mls_cat_fieldnames
delv_flg,US_ENGLISH,LES,LES,LES,LES,0,0,Delivery Flag,dcs_fieldnames
devcod,US_ENGLISH,LES,LES,AdjustHist,LES,0,0,Device,dcs_fieldnames
devcod,US_ENGLISH,LES,LES,LES,LES,0,0,Device Code,dcs_fieldnames
devcod,US_ENGLISH,LES,LES,LES,LES,1,0,Device Code,mtf_data
devcod,US_ENGLISH,LES,LES,LES,RF,0,0,Device:,dcs_rdt_fld
dispatch_dte,US_ENGLISH,LES,LES,LES,LES,0,0,Dispatch Date,dcs_nondb_fieldnames
doc_num,US_ENGLISH,LES,LES,LES,LES,0,0,Document Number,dcs_fieldnames
doc_num,US_ENGLISH,LES,LES,LES,RF,0,0,BOL:,dcs_rdt_fld
driver_lic_num,US_ENGLISH,LES,LES,LES,LES,0,0,Driver License,dcs_fieldnames
driver_nam,US_ENGLISH,LES,LES,LES,LES,0,0,Driver Name,dcs_fieldnames
expdte,US_ENGLISH,LES,LES,LES,LES,0,0,Expiration Date,dcs_fieldnames
expdte,US_ENGLISH,LES,LES,rcvtrkopr,LES,0,0,Expected Date,dcs_fieldnames
frtcst,US_ENGLISH,LES,LES,LES,LES,0,0,Freight Cost,dcs_fieldnames
grswgt,US_ENGLISH,LES,LES,LES,LES,0,0,Gross Weight of Case,sal_les_mls_cat_fieldnames
grswgt,US_ENGLISH,LES,LES,LES,RF,0,0,Grs Wt:,dcs_rdt_fld
hot_flg,US_ENGLISH,LES,LES,LES,LES,0,0,Hot,dcs_fieldnames
invdte,US_ENGLISH,LES,LES,LES,LES,0,0,Invoiced Date,dcs_fieldnames
invdte,US_ENGLISH,LES,LES,rimmstmnt,LES,0,0,Invoice Master Date,dcs_fieldnames
invnum,US_ENGLISH,LES,LES,LES,LES,0,0,Invoice Number,sal_les_mls_cat_fieldnames
invnum,US_ENGLISH,LES,LES,LES,RF,0,0,Invoice:,dcs_rdt_fld
invnum,US_ENGLISH,LES,LES,LES,RF,1,0,Inv:,dcs_rdt_fld
invtyp,US_ENGLISH,LES,LES,LES,LES,0,0,Invoice Type,dcs_fieldnames
lblflg,US_ENGLISH,LES,LES,LES,LES,0,0,Produce Labels,dcs_fieldnames
lblflg,US_ENGLISH,LES,LES,LES,RF,0,0,Lbl:,dcs_rdt_fld
mod_usr_id,US_ENGLISH,LES,LES,LES,LES,0,0,Last Modified By,sal_les_mls_cat_fieldnames
mod_usr_id,US_ENGLISH,LES,LES,invadjappropr,LES,0,0,User ID,dcs_fieldnames
moddte,US_ENGLISH,LES,LES,LES,LES,0,0,Date Last Modified,sal_les_mls_cat_fieldnames
numcas,US_ENGLISH,LES,LES,LES,LES,0,0,Number of Cases,dcs_fieldnames
numcas,US_ENGLISH,LES,LES,LES,RF,0,0,Cases:,dcs_rdt_fld
numcas,US_ENGLISH,LES,LES,LES,RF,1,0,Cas:,dcs_rdt_fld
numpal,US_ENGLISH,LES,LES,LES,LES,0,0,Number of Pallets,dcs_fieldnames
numpal,US_ENGLISH,LES,LES,LES,RF,0,0,Pallets:,dcs_rdt_fld
numpal,US_ENGLISH,LES,LES,LES,RF,1,0,Pallets:,dcs_rdt_fld
numpal,US_ENGLISH,LES,LES,LES,RF,2,0,Pal:,dcs_rdt_fld
numpal,US_ENGLISH,LES,LES,rcvManual,LES,0,0,Location Maximum Quantity,dcs_fieldnames
orgref,US_ENGLISH,LES,LES,LES,LES,0,0,Originator Reference,dcs_fieldnames
orig_trlr_num,US_ENGLISH,LES,LES,LES,LES,0,0,Original Trailer Number,dcs_fieldnames
pal_slot_flg,US_ENGLISH,LES,LES,LES,LES,0,0,Are Pallet Slots Captured,dcs_fieldnames
pend_dte,US_ENGLISH,LES,LES,LES,LES,0,0,Pending Date,dcs_fieldnames
pend_dte,US_ENGLISH,LES,LES,shpCloseTrailer,LES,0,0,Dispatch Date,dcs_fieldnames
refrig_flg,US_ENGLISH,LES,LES,LES,LES,0,0,Refrigerated,dcs_fieldnames
ret_ref1,US_ENGLISH,LES,LES,LES,LES,0,0,Return Reference 1,dcs_fieldnames
ret_ref2,US_ENGLISH,LES,LES,LES,LES,0,0,Return Reference 2,dcs_fieldnames
ret_ref3,US_ENGLISH,LES,LES,LES,LES,0,0,Return Reference 3,dcs_fieldnames
sadnum,US_ENGLISH,LES,LES,LES,LES,0,0,SAD Number,dcs_fieldnames
sec_trlr_num,US_ENGLISH,LES,LES,LES,LES,0,0,Second Trailer Number,dcs_fieldnames
ship_id,US_ENGLISH,LES,LES,LES,LES,0,0,Shipment ID,sal_les_mls_cat_fieldnames
ship_id,US_ENGLISH,LES,LES,LES,RF,0,0,Ship ID:,dcs_rdt_fld
shpdte,US_ENGLISH,LES,LES,LES,LES,0,0,Shipped Date,sal_les_mls_cat_fieldnames
src_host,US_ENGLISH,LES,LES,LES,LES,0,0,Source Host,dcs_fieldnames
src_port,US_ENGLISH,LES,LES,LES,LES,0,0,Source Port,dcs_fieldnames
stoloc,US_ENGLISH,LES,LES,LES,LES,0,0,Storage Location,sal_les_mls_cat_fieldnames
stoloc,US_ENGLISH,LES,LES,LES,RF,0,0,Location:,dcs_rdt_fld
stoloc,US_ENGLISH,LES,LES,LES,RF,1,0,Loc:,dcs_rdt_fld
stoloc,US_ENGLISH,LES,LES,apptmnt,LES,0,0,Dock Door,dcs_fieldnames
stoloc,US_ENGLISH,LES,LES,planwave,LES,0,0,Dock Door,dcs_fieldnames
stoloc,US_ENGLISH,LES,LES,shpstgtrnopr,LES,0,0,New Staging Lane,dcs_nondb_fieldnames
stoloc,US_ENGLISH,LES,LES,trlrmgtopr,LES,0,0,Shipment Location,dcs_nondb_fieldnames
stoloc,US_ENGLISH,LES,shpspltopr,LES,LES,0,0,Dock Door,dcs_fieldnames
stoloc_wh_id,US_ENGLISH,LES,LES,LES,LES,0,0,Warehouse Trailer Is Checked In To,dcs_fieldnames
stoloc_wh_id,US_ENGLISH,LES,LES,trlrmgtopr,LES,0,0,Warehouse ID,dcs_fieldnames
supnum,US_ENGLISH,LES,LES,LES,LES,0,0,Supplier Number,sal_les_mls_cat_fieldnames
supnum,US_ENGLISH,LES,LES,LES,RF,0,0,Supplier:,dcs_rdt_fld
supnum,US_ENGLISH,LES,LES,LES,RF,1,0,Sup:,dcs_rdt_fld
track_num,US_ENGLISH,LES,LES,LES,LES,0,0,Pro Number,dcs_fieldnames
track_num,US_ENGLISH,LES,LES,LES,RF,0,0,Pro #:,dcs_rdt_fld
tractor_num,US_ENGLISH,LES,LES,LES,LES,0,0,Tractor Number,dcs_fieldnames
trknum,US_ENGLISH,LES,LES,LES,LES,0,0,Truck Number,dcs_fieldnames
trknum,US_ENGLISH,LES,LES,LES,RF,0,0,Truck Number:,dcs_rdt_fld
trknum,US_ENGLISH,LES,LES,LES,RF,1,0,Truck:,dcs_rdt_fld
trknum,US_ENGLISH,LES,LES,LES,RF,2,0,Trk:,dcs_rdt_fld
trkref,US_ENGLISH,LES,LES,LES,LES,0,0,Truck Reference,dcs_fieldnames
trkref,US_ENGLISH,LES,LES,LES,RF,0,0,Truck Reference:,dcs_rdt_fld
trkref,US_ENGLISH,LES,LES,LES,RF,1,0,Ref:,dcs_rdt_fld
trlr_broker,US_ENGLISH,LES,LES,LES,LES,0,0,Trailer Broker,dcs_fieldnames
trlr_cod,US_ENGLISH,LES,LES,LES,LES,0,0,Trailer Code,dcs_fieldnames
trlr_cond,US_ENGLISH,LES,LES,LES,LES,0,0,Trailer Condition,dcs_fieldnames
trlr_id,US_ENGLISH,LES,LES,LES,LES,0,0,Trailer ID,dcs_fieldnames
trlr_ref,US_ENGLISH,LES,LES,LES,LES,0,0,Trailer Reference Number,dcs_fieldnames
trlr_ref,US_ENGLISH,LES,LES,LES,RF,0,0,Trl Ref:,dcs_rdt_fld
trlr_seal1,US_ENGLISH,LES,LES,LES,LES,0,0,Trailer Seal 1,dcs_fieldnames
trlr_seal1,US_ENGLISH,LES,LES,LES,RF,0,0,Seal 1:,dcs_rdt_fld
trlr_seal1,US_ENGLISH,LES,LES,VAR_TRAILER_PROPERTIES,LES,0,10,Seal:,PR70016
trlr_seal2,US_ENGLISH,LES,LES,LES,LES,0,0,Trailer Seal 2,dcs_fieldnames
trlr_seal2,US_ENGLISH,LES,LES,LES,RF,0,0,Seal 2:,dcs_rdt_fld
trlr_seal3,US_ENGLISH,LES,LES,LES,LES,0,0,Trailer Seal 3,dcs_fieldnames
trlr_seal3,US_ENGLISH,LES,LES,LES,RF,0,0,Seal 3:,dcs_rdt_fld
trlr_seal4,US_ENGLISH,LES,LES,LES,LES,0,0,Trailer Seal 4,dcs_fieldnames
trlr_seal4,US_ENGLISH,LES,LES,LES,RF,0,0,Seal 4:,dcs_rdt_fld
trlr_size,US_ENGLISH,LES,LES,LES,LES,0,0,Trailer Size,dcs_fieldnames
trlr_size,US_ENGLISH,LES,LES,LES,RF,1,0,Trl Siz:,dcs_rdt_fld
trlr_stat,US_ENGLISH,LES,LES,LES,LES,0,0,Trailer Status,dcs_fieldnames
trlr_stat,US_ENGLISH,LES,LES,LES,RF,1,0,Trl Sts:,dcs_rdt_fld
trlr_typ,US_ENGLISH,LES,LES,LES,LES,0,0,Trailer Type,dcs_fieldnames
trlr_typ,US_ENGLISH,LES,LES,LES,RF,1,0,Trl Typ:,dcs_rdt_fld
trlr_wgt,US_ENGLISH,LES,LES,LES,LES,0,0,Trailer Weight,dcs_fieldnames
trnspt,US_ENGLISH,LES,LES,LES,LES,0,0,Transportation Method,dcs_fieldnames
turn_flg,US_ENGLISH,LES,LES,LES,LES,0,0,Turn Flag,dcs_fieldnames
vc_adddte,US_ENGLISH,LES,LES,LES,LES,0,10,Added Date,VAR
vc_alt_carcod,US_ENGLISH,LES,LES,LES,LES,0,10,Alternate Carrier Code,PR65635
vc_alt_carcod,US_ENGLISH,LES,LES,VAR_TRAILER_PROPERTIES,LES,0,10,Alt Carcod:,PR70016
vc_bol_num,US_ENGLISH,LES,LES,LES,LES,0,10,BOL Number,PR65635
vc_border_crossing,US_ENGLISH,LES,LES,LES,LES,0,10,Border Crossing,PR_64893
vc_client_id,US_ENGLISH,LES,LES,LES,LES,0,10,Client ID,PR_67274
vc_cube,US_ENGLISH,LES,LES,LES,LES,0,10,Cube,
vc_fuel_level,US_ENGLISH,LES,LES,LES,LES,0,10,Fuel Level,
vc_fuel_level,US_ENGLISH,LES,LES,VAR_TRAILER_PROPERTIES,LES,0,10,Fuel:,PR70016
vc_fuel_level,US_ENGLISH,LES,LES,trlrmgtopr,LES,0,10,Fuel Level,
vc_license_checked_flg,US_ENGLISH,LES,LES,LES,LES,0,10,License Checked?,PR65635
vc_license_plate,US_ENGLISH,LES,LES,LES,LES,0,10,License Plate,HOPWLL-199
vc_num_axle,US_ENGLISH,LES,LES,LES,LES,0,10,Number of Axle,
vc_orig_temperature,US_ENGLISH,LES,LES,LES,LES,0,10,Original Temperature,PR65635
vc_paps,US_ENGLISH,LES,LES,LES,LES,0,10,PAPS,PR_64893
vc_pndloc,US_ENGLISH,LES,LES,LES,LES,0,10,Pending Location,HOPWLL-199
vc_req_temperature,US_ENGLISH,LES,LES,LES,LES,0,10,Required Temperature,PR65635
vc_req_temperature,US_ENGLISH,LES,LES,VAR_TRAILER_PROPERTIES,LES,0,10,Req Temp:,PR70016
vc_seal_checked_flg,US_ENGLISH,LES,LES,LES,LES,0,10,Seal Checked?,PR65635
vc_ship_from_cstnum,US_ENGLISH,LES,LES,LES,LES,0,10,Ship From Customer,PR49869
vc_temperature,US_ENGLISH,LES,LES,LES,LES,0,10,Trailer Temperature,PR65635
vc_temperature,US_ENGLISH,LES,LES,VAR_TRAILER_PROPERTIES,LES,0,10,Temp:,PR70016
vc_tractor_carcod,US_ENGLISH,LES,LES,LES,LES,0,10,Tractor Carrier Code,PR65635
vc_tractor_id,US_ENGLISH,LES,LES,LES,LES,0,10,Tractor ID,PR65635
vc_trailer_num,US_ENGLISH,LES,LES,LES,LES,0,10,Common Trailer Number,HOPWLL-199
vc_trailer_num,US_ENGLISH,LES,LES,VAR_TRAILER_PROPERTIES,LES,0,10,Alt Num:,HOPWLL-199
vc_trlr_num,US_ENGLISH,LES,LES,VAR_SHUNTING_LOOKUP,LES,0,10,Alt Num:,PR70016
vc_trlr_num,US_ENGLISH,LES,LES,VAR_TRAILER_PROPERTIES,LES,0,10,Alt Num:,PR70016
vc_trlr_stat,US_ENGLISH,LES,LES,LES,LES,0,10,Trailer Utilization Status,PR65635
vc_trlr_stat,US_ENGLISH,LES,LES,VAR_TRAILER_PROPERTIES,LES,0,10,Trl Stat:,PR70016
vc_yrdchck_flg,US_ENGLISH,LES,LES,LES,LES,0,10,Yard Check,PR70016
waybil,US_ENGLISH,LES,LES,LES,LES,0,0,Waybill,dcs_fieldnames
waybil,US_ENGLISH,LES,LES,LES,RF,0,0,Waybill:,dcs_rdt_fld
waybil,US_ENGLISH,LES,LES,LES,RF,1,0,Way:,dcs_rdt_fld
yard_loc,US_ENGLISH,LES,LES,ACK_DIR_SERV,RF,0,0,Trlr Loc:,dcs_rdt_fld
yard_loc,US_ENGLISH,LES,LES,CMPL_INB_SERV,RF,0,0,Trlr Loc:,dcs_rdt_fld
yard_loc,US_ENGLISH,LES,LES,FLUID_LOAD,RF,0,0,Loc:,dcs_rdt_fld
yard_loc,US_ENGLISH,LES,LES,LES,LES,0,0,Yard Location,dcs_fieldnames
yard_loc,US_ENGLISH,LES,LES,LES,RF,0,0,Yrd Loc:,dcs_rdt_fld
yard_loc,US_ENGLISH,LES,LES,VAR_SHUNTING_ACTIVITY,LES,0,10,Location:,PR70016
yard_loc,US_ENGLISH,LES,LES,movtrlropr,LES,0,0,Current Location,dcs_fieldnames
yard_loc_wh_id,US_ENGLISH,LES,LES,LES,LES,0,0,Yard Location Warehouse ID,dcs_fieldnames
yard_stat,US_ENGLISH,LES,LES,LES,LES,0,0,Yard Status,dcs_fieldnames
