colnam,colval,locale_id,lngdsc,short_dsc,grp_nam
actcod,PREBLTINV,US_ENGLISH,Prebuilt Inventory,Prebuilt Inventory,PR62042
arecod|wh_id,PREBUILT|0030,US_ENGLISH,PREBUILT - Pre Built Inventory,Prebuilt Inventory,PR62042
arecod|wh_id,PREBUILT|0030,FRENCH,PREBUILT - Pre Built Inventory,Prebuilt Inventory,PR62042
