colnam,colval,locale_id,lngdsc,short_dsc,grp_nam
invsts_grp,GROUP2,US_ENGLISH,Invsts Group 2,Invsts Group 2,
invsts_grp,GROUP2,FRENCH,Invsts Group 2,Invsts Group 2,
invsts_grp,GROUP3,US_ENGLISH,Invsts Group 3,Invsts Group 3,
invsts_grp,GROUP3,FRENCH,Invsts Group 3,Invsts Group 3,
invsts_grp,GROUP1,US_ENGLISH,Invsts Group 1,Invsts Group 1,
invsts_grp,GROUP1,FRENCH,Invsts Group 1,Invsts Group 1,
