var_nam,appl_id,frm_id,addon_id,cust_lvl,lkp_id,ena_flg,cod_col,desc_col,add_null_flg,dis_sgl_flg,edt_flg,srt_col,grp_nam
VC_PLATFORM_ASSET,varpltfrmovropr,varpltfrmovropr,LES,10,uc_plat_ovrd_prtnum,1,rtstr1,lngdsc,0,0,1,,CR102914-1K
vc_platform_asset,varpltfrmovropr,varpltfrmovropr,LES,10,uc_plat_ovrd_prtnum,1,rtstr1,lngdsc,0,0,1,,CR102914-1K
