polcod,polvar,polval,wh_id_tmpl,srtseq,rtstr1,rtstr2,rtnum1,rtnum2,rtflt1,rtflt2,moddte,mod_usr_id,grp_nam
VAR-SAP-CONVERSION,RP-CLASSIFICATION-CODE,10,----,1,QT,V2,0,0,0,0,25/09/2011 3:58:36 PM,NOUSER,FS-33
VAR-SAP-CONVERSION,RP-CLASSIFICATION-CODE,10C1,----,1,C1,QH,0,0,0,0,25/09/2011 3:58:36 PM,NOUSER,FS-33
VAR-SAP-CONVERSION,RP-CLASSIFICATION-CODE,10C2,----,1,C2,V1,0,0,0,0,25/09/2011 3:58:36 PM,NOUSER,FS-33
VAR-SAP-CONVERSION,RP-CLASSIFICATION-CODE,10E1,----,1,C2,V1,0,0,0,0,25/09/2011 3:58:36 PM,NOUSER,FS-33
VAR-SAP-CONVERSION,RP-CLASSIFICATION-CODE,10E3,----,1,C1,QH,0,0,0,0,25/09/2011 3:58:36 PM,NOUSER,FS-33
VAR-SAP-CONVERSION,RP-CLASSIFICATION-CODE,12,----,1,QT,V2,0,0,0,0,25/09/2011 3:58:36 PM,NOUSER,FS-33
VAR-SAP-CONVERSION,RP-CLASSIFICATION-CODE,12C1,----,1,C1,QH,0,0,0,0,25/09/2011 3:58:36 PM,NOUSER,FS-33
VAR-SAP-CONVERSION,RP-CLASSIFICATION-CODE,12C2,----,1,C2,V1,0,0,0,0,25/09/2011 3:58:36 PM,NOUSER,FS-33
VAR-SAP-CONVERSION,RP-CLASSIFICATION-CODE,12E1,----,1,C2,V1,0,0,0,0,25/09/2011 3:58:36 PM,NOUSER,FS-33
VAR-SAP-CONVERSION,RP-CLASSIFICATION-CODE,12E2,----,1,C2,V1,0,0,0,0,25/09/2011 3:58:36 PM,NOUSER,FS-33
VAR-SAP-CONVERSION,RP-CLASSIFICATION-CODE,12E3,----,1,C1,QH,0,0,0,0,25/09/2011 3:58:36 PM,NOUSER,FS-33
VAR-SAP-CONVERSION,RP-CLASSIFICATION-CODE,12E4,----,1,C1,QH,0,0,0,0,25/09/2011 3:58:36 PM,NOUSER,FS-33
VAR-SAP-CONVERSION,RP-CLASSIFICATION-CODE,14,----,1,QT,V2,0,0,0,0,25/09/2011 3:58:36 PM,NOUSER,FS-33
VAR-SAP-CONVERSION,RP-CLASSIFICATION-CODE,14C1,----,1,C1,QH,0,0,0,0,25/09/2011 3:58:36 PM,NOUSER,FS-33
VAR-SAP-CONVERSION,RP-CLASSIFICATION-CODE,14C2,----,1,C2,V1,0,0,0,0,25/09/2011 3:58:36 PM,NOUSER,FS-33
VAR-SAP-CONVERSION,RP-CLASSIFICATION-CODE,14E1,----,1,C2,V1,0,0,0,0,25/09/2011 3:58:36 PM,NOUSER,FS-33
VAR-SAP-CONVERSION,RP-CLASSIFICATION-CODE,14E2,----,1,C2,V1,0,0,0,0,25/09/2011 3:58:36 PM,NOUSER,FS-33
VAR-SAP-CONVERSION,RP-CLASSIFICATION-CODE,14E3,----,1,C1,QH,0,0,0,0,25/09/2011 3:58:36 PM,NOUSER,FS-33
VAR-SAP-CONVERSION,RP-CLASSIFICATION-CODE,14E4,----,1,C1,QH,0,0,0,0,25/09/2011 3:58:36 PM,NOUSER,FS-33
VAR-SAP-CONVERSION,RP-CLASSIFICATION-CODE,3,----,1,QT,V2,0,0,0,0,25/09/2011 3:58:36 PM,NOUSER,FS-33
VAR-SAP-CONVERSION,RP-CLASSIFICATION-CODE,3C1,----,1,C1,QH,0,0,0,0,25/09/2011 3:58:36 PM,NOUSER,FS-33
VAR-SAP-CONVERSION,RP-CLASSIFICATION-CODE,3C2,----,1,C2,V1,0,0,0,0,25/09/2011 3:58:36 PM,NOUSER,FS-33
VAR-SAP-CONVERSION,RP-CLASSIFICATION-CODE,5C,----,1,QT,V2,0,0,0,0,25/09/2011 3:58:36 PM,NOUSER,FS-33
VAR-SAP-CONVERSION,RP-CLASSIFICATION-CODE,5CC1,----,1,C1,QH,0,0,0,0,25/09/2011 3:58:36 PM,NOUSER,FS-33
VAR-SAP-CONVERSION,RP-CLASSIFICATION-CODE,5CC2,----,1,C2,V1,0,0,0,0,25/09/2011 3:58:36 PM,NOUSER,FS-33
VAR-SAP-CONVERSION,RP-CLASSIFICATION-CODE,5CE1,----,1,C2,V1,0,0,0,0,25/09/2011 3:58:36 PM,NOUSER,FS-33
VAR-SAP-CONVERSION,RP-CLASSIFICATION-CODE,5CE3,----,1,C1,QH,0,0,0,0,25/09/2011 3:58:36 PM,NOUSER,FS-33
VAR-SAP-CONVERSION,RP-CLASSIFICATION-CODE,5W,----,1,QT,V2,0,0,0,0,25/09/2011 3:58:36 PM,NOUSER,FS-33
VAR-SAP-CONVERSION,RP-CLASSIFICATION-CODE,5WC1,----,1,C1,QH,0,0,0,0,25/09/2011 3:58:36 PM,NOUSER,FS-33
VAR-SAP-CONVERSION,RP-CLASSIFICATION-CODE,5WC2,----,1,C2,V1,0,0,0,0,25/09/2011 3:58:36 PM,NOUSER,FS-33
VAR-SAP-CONVERSION,RP-CLASSIFICATION-CODE,5WE1,----,1,C2,V1,0,0,0,0,25/09/2011 3:58:36 PM,NOUSER,FS-33
VAR-SAP-CONVERSION,RP-CLASSIFICATION-CODE,5WE3,----,1,C1,QH,0,0,0,0,25/09/2011 3:58:36 PM,NOUSER,FS-33
VAR-SAP-CONVERSION,RP-CLASSIFICATION-CODE,7,----,1,QT,V2,0,0,0,0,25/09/2011 3:58:36 PM,NOUSER,FS-33
VAR-SAP-CONVERSION,RP-CLASSIFICATION-CODE,7C1,----,1,C1,QH,0,0,0,0,25/09/2011 3:58:36 PM,NOUSER,FS-33
VAR-SAP-CONVERSION,RP-CLASSIFICATION-CODE,7C2,----,1,C2,V1,0,0,0,0,25/09/2011 3:58:36 PM,NOUSER,FS-33
VAR-SAP-CONVERSION,RP-CLASSIFICATION-CODE,7E1,----,1,C2,V1,0,0,0,0,25/09/2011 3:58:36 PM,NOUSER,FS-33
VAR-SAP-CONVERSION,RP-CLASSIFICATION-CODE,7E3,----,1,C1,QH,0,0,0,0,25/09/2011 3:58:36 PM,NOUSER,FS-33
VAR-SAP-CONVERSION,RP-CLASSIFICATION-CODE,BRFB,----,1,FD,V1,0,0,0,0,24/07/2010 10:12:14 PM,NOUSER,PR46873
VAR-SAP-CONVERSION,RP-CLASSIFICATION-CODE,BRKG,----,1,DP,V1,0,0,0,0,24/07/2010 10:12:14 PM,NOUSER,PR46873
VAR-SAP-CONVERSION,RP-CLASSIFICATION-CODE,BRRE,----,1,RD,V1,0,0,0,0,24/07/2010 10:12:14 PM,NOUSER,PR46873
VAR-SAP-CONVERSION,RP-CLASSIFICATION-CODE,BYPS,----,1,JO,V2,0,0,0,0,25/07/2010 12:03:10 AM,SUPER,PR46873
VAR-SAP-CONVERSION,RP-CLASSIFICATION-CODE,C120,----,1,QT,V2,0,0,0,0,24/07/2010 10:12:14 PM,NOUSER,PR46873
VAR-SAP-CONVERSION,RP-CLASSIFICATION-CODE,CH48,----,1,QT,V2,0,0,0,0,25/09/2011 3:58:36 PM,NOUSER,FS-33
VAR-SAP-CONVERSION,RP-CLASSIFICATION-CODE,CRDM,----,1,A1,V1,0,0,0,0,24/07/2010 10:12:14 PM,NOUSER,PR46873
VAR-SAP-CONVERSION,RP-CLASSIFICATION-CODE,CRTN,----,1,RG,V1,0,0,0,0,24/07/2010 10:12:14 PM,NOUSER,PR46873
VAR-SAP-CONVERSION,RP-CLASSIFICATION-CODE,DASA,----,1,DS,V1,0,0,0,0,24/07/2010 10:12:14 PM,NOUSER,PR46873
VAR-SAP-CONVERSION,RP-CLASSIFICATION-CODE,DISP,----,1,TK,V1,0,0,0,0,24/07/2010 10:12:14 PM,NOUSER,PR46873
VAR-SAP-CONVERSION,RP-CLASSIFICATION-CODE,DONA,----,1,CD,V1,0,0,0,0,24/07/2010 11:40:41 PM,SUPER,PR46873
VAR-SAP-CONVERSION,RP-CLASSIFICATION-CODE,EXPO,----,1,CE,V2,0,0,0,0,24/07/2010 10:12:14 PM,NOUSER,PR46873
VAR-SAP-CONVERSION,RP-CLASSIFICATION-CODE,H024,----,1,QT,V2,0,0,0,0,25/09/2011 3:58:36 PM,NOUSER,FS-33
VAR-SAP-CONVERSION,RP-CLASSIFICATION-CODE,H036,----,1,QT,V2,0,0,0,0,25/07/2010 7:09:33 PM,SUPER,
VAR-SAP-CONVERSION,RP-CLASSIFICATION-CODE,H048,----,1,QT,V2,0,0,0,0,25/09/2011 3:58:36 PM,NOUSER,FS-33
VAR-SAP-CONVERSION,RP-CLASSIFICATION-CODE,H072,----,1,QT,V2,0,0,0,0,24/07/2010 10:12:14 PM,NOUSER,PR46873
VAR-SAP-CONVERSION,RP-CLASSIFICATION-CODE,H096,----,1,QT,V2,0,0,0,0,24/07/2010 10:12:14 PM,NOUSER,PR46873
VAR-SAP-CONVERSION,RP-CLASSIFICATION-CODE,H120,----,1,QT,V2,0,0,0,0,24/07/2010 10:12:14 PM,NOUSER,PR46873
VAR-SAP-CONVERSION,RP-CLASSIFICATION-CODE,H168,----,1,QT,V2,0,0,0,0,24/07/2010 10:12:14 PM,NOUSER,PR46873
VAR-SAP-CONVERSION,RP-CLASSIFICATION-CODE,H192,----,1,QT,V2,0,0,0,0,24/07/2010 10:12:14 PM,NOUSER,PR46873
VAR-SAP-CONVERSION,RP-CLASSIFICATION-CODE,H240,----,1,QT,V2,0,0,0,0,24/07/2010 10:12:14 PM,NOUSER,PR46873
VAR-SAP-CONVERSION,RP-CLASSIFICATION-CODE,H268,----,1,QT,V2,0,0,0,0,24/07/2010 10:12:14 PM,NOUSER,PR46873
VAR-SAP-CONVERSION,RP-CLASSIFICATION-CODE,H288,----,1,QT,V2,0,0,0,0,25/07/2010 7:07:56 PM,SUPER,
VAR-SAP-CONVERSION,RP-CLASSIFICATION-CODE,H336,----,1,QT,V2,0,0,0,0,24/07/2010 10:12:14 PM,NOUSER,PR46873
VAR-SAP-CONVERSION,RP-CLASSIFICATION-CODE,H700,----,1,QT,V2,0,0,0,0,25/09/2011 3:58:36 PM,NOUSER,FS-33
VAR-SAP-CONVERSION,RP-CLASSIFICATION-CODE,HOLD,----,1,Q2,QH,0,0,0,0,24/07/2010 10:12:14 PM,NOUSER,PR46873
VAR-SAP-CONVERSION,RP-CLASSIFICATION-CODE,MCLB,----,1,QT,QH,0,0,0,0,24/07/2010 10:12:14 PM,NOUSER,PR46873
VAR-SAP-CONVERSION,RP-CLASSIFICATION-CODE,Q3,----,1,Q3,QH,0,0,0,0,24/07/2010 10:12:14 PM,NOUSER,PR46873
VAR-SAP-CONVERSION,RP-CLASSIFICATION-CODE,QA,----,1,QA,QH,0,0,0,0,24/07/2010 10:12:14 PM,NOUSER,PR46873
VAR-SAP-CONVERSION,RP-CLASSIFICATION-CODE,REAL,----,1,Q1,QH,0,0,0,0,25/07/2010 5:01:43 PM,SUPER,PR46873
VAR-SAP-CONVERSION,RP-CLASSIFICATION-CODE,REPK,----,1,MR,V1,0,0,0,0,24/07/2010 10:12:14 PM,NOUSER,PR46873
VAR-SAP-CONVERSION,RP-CLASSIFICATION-CODE,RWRK,----,1,PR,V1,0,0,0,0,25/07/2010 5:00:10 PM,SUPER,PR46873
VAR-SAP-CONVERSION,RP-CLASSIFICATION-CODE,SAMP,----,1,HI,v2,0,0,0,0,24/07/2010 10:12:14 PM,NOUSER,PR46873
VAR-SAP-CONVERSION,RP-CLASSIFICATION-CODE,SHLD,----,1,Y1,V2,0,0,0,0,24/07/2010 10:12:14 PM,NOUSER,PR46873
VAR-SAP-CONVERSION,RP-CLASSIFICATION-CODE,SHOC,----,1,HD,V1,0,0,0,0,24/07/2010 10:12:14 PM,NOUSER,PR46873
VAR-SAP-CONVERSION,RP-CLASSIFICATION-CODE,SHOR,----,1,SH,V1,0,0,0,0,24/07/2010 10:12:14 PM,NOUSER,PR46873
VAR-SAP-CONVERSION,RP-CLASSIFICATION-CODE,SSBD,----,1,OA,V1,0,0,0,0,09/10/2010 3:23:37 PM,SUPER,PR46873
VAR-SAP-CONVERSION,RP-CLASSIFICATION-CODE,STOR,----,1,EM,V2,0,0,0,0,25/07/2010 5:02:42 PM,SUPER,PR46873
VAR-SAP-CONVERSION,RP-CLASSIFICATION-CODE,TESP,----,1,TT,V2,0,0,0,0,24/07/2010 10:12:14 PM,NOUSER,PR46873
VAR-SAP-CONVERSION,RP-CLASSIFICATION-CODE,UNSL,----,1,PF,V1,0,0,0,0,25/07/2010 4:57:55 PM,SUPER,PR46873
VAR-SAP-CONVERSION,RP-CLASSIFICATION-CODE,USBL,----,1,1,V2,0,0,0,0,24/07/2010 10:12:14 PM,NOUSER,PR46873
VAR-SAP-CONVERSION,RP-CLASSIFICATION-CODE,VARI,----,1,LS,V1,0,0,0,0,25/07/2010 5:02:17 PM,SUPER,PR46873
