polcod,polvar,polval,wh_id_tmpl,srtseq,rtstr1,rtstr2,rtnum1,rtnum2,rtflt1,rtflt2,moddte,mod_usr_id,grp_nam
MGP-PREBUILT-INVENTORY,ARECOD,VALUE,----,1,PREBUILT,,,,,,,,PR62042
MGP-PREBUILT-INVENTORY,OPRCOD,VALUE,----,1,TRN,,,,,,,,PR62042
