dda_id,cust_lvl,dda_fld_typ,var_nam,srtseq,link_dda_id,link_flds,ena_flg,rqdflg,grp_nam,dflt_flg,dspl_only_flg,fltr_grp,ctxt_flds,pk_fld_flg,pk_layout_flg,aggr_func
AREA-CONS-CAND,10,A,wh_id,0,,"",1,0,dcs,0,0,,"",0,0,0
AREA-CONS-CAND,10,D,wh_id,0,,"",1,0,dcs,0,0,,"",0,0,0
AREA-CONS-CAND,10,S,wh_id,0,,"",1,0,dcs,0,0,,AREA-CONS-CAND-GEN,0,0,0
AREA-CONS-CAND,10,A,srcare,1,,"",1,0,dcs,0,0,,"",0,0,0
AREA-CONS-CAND,10,D,srcare,1,,"",1,0,dcs,0,0,,"",0,0,0
AREA-CONS-CAND,10,S,srcare,1,,"",1,0,dcs,0,0,,AREA-CONS-CAND-GEN,0,0,0
AREA-CONS-CAND,10,A,srcloc,2,,"",1,0,dcs,0,0,,"",0,0,0
AREA-CONS-CAND,10,D,srcloc,2,,"",1,0,dcs,0,0,,"",0,0,0
AREA-CONS-CAND,10,S,prtnum,2,,"",1,0,dcs,0,0,,"",0,0,0
AREA-CONS-CAND,10,A,prtnum,3,,"",1,0,dcs,0,0,,"",0,0,0
AREA-CONS-CAND,10,D,lodnum,3,,"",1,0,dcs,0,0,,"",0,0,0
AREA-CONS-CAND,10,S,prtfam,3,,"",1,0,dcs,0,0,,"",0,0,0
AREA-CONS-CAND,10,A,prt_client_id,4,,"",1,0,dcs,0,0,,"",0,0,0
AREA-CONS-CAND,10,D,prtfam,4,,"",1,0,dcs,0,0,,"",0,0,0
AREA-CONS-CAND,10,A,invsts,5,,"",1,0,dcs,0,0,,"",0,0,0
AREA-CONS-CAND,10,D,prtnum,5,,"",1,0,dcs,0,0,,"",0,0,0
AREA-CONS-CAND,10,A,dstloc,6,,"",1,0,dcs,0,0,,"",0,0,0
AREA-CONS-CAND,10,D,prt_client_id,6,,"",1,0,dcs,0,0,,"",0,0,0
AREA-CONS-CAND,10,A,dstare,7,,"",1,0,dcs,0,0,,"",0,0,0
AREA-CONS-CAND,10,D,invsts,7,,"",1,0,dcs,0,0,,"",0,0,0
AREA-CONS-CAND,10,A,srcqty,8,,"",1,0,dcs,0,0,,"",0,0,0
AREA-CONS-CAND,10,D,dstloc,8,,"",1,0,dcs,0,0,,"",0,0,0
AREA-CONS-CAND,10,A,pndqty,9,,"",1,0,dcs,0,0,,"",0,0,0
AREA-CONS-CAND,10,D,dstare,9,,"",1,0,dcs,0,0,,"",0,0,0
AREA-CONS-CAND,10,A,status,10,,"",1,0,dcs,0,0,,"",0,0,0
AREA-CONS-CAND,10,D,srcqty,10,,"",1,0,dcs,0,0,,"",0,0,0
AREA-CONS-CAND,10,A,prtfam,11,,"",1,0,dcs,0,0,,"",0,0,0
AREA-CONS-CAND,10,D,pndqty,11,,"",1,0,dcs,0,0,,"",0,0,0
AREA-CONS-CAND,10,A,lodnum,12,,"",1,0,dcs,0,0,,"",0,0,0
AREA-CONS-CAND,10,D,status,12,,"",1,0,dcs,0,0,,"",0,0,0