dda_id,cust_lvl,dda_fld_typ,var_nam,srtseq,link_dda_id,link_flds,ena_flg,rqdflg,grp_nam,dflt_flg,dspl_only_flg,fltr_grp,ctxt_flds,pk_fld_flg,pk_layout_flg,aggr_func
VAR-CREATE-RCV-INV,10,A,arecod,0,,"",1,0,,0,0,,"",0,0,0
VAR-CREATE-RCV-INV,10,A,code_date,15,,"",1,0,,0,0,,"",0,0,0
VAR-CREATE-RCV-INV,10,A,code_dte,17,,"",1,0,,0,0,,"",0,0,0
VAR-CREATE-RCV-INV,10,A,dtlnum,0,,"",1,0,,0,0,,"",0,0,0
VAR-CREATE-RCV-INV,10,A,expire_dte,0,,"",1,0,,0,0,,"",0,0,0
VAR-CREATE-RCV-INV,10,A,invsts,0,,"",1,0,,0,0,,"",0,0,0
VAR-CREATE-RCV-INV,10,A,locsts,0,,"",1,0,,0,0,,"",0,0,0
VAR-CREATE-RCV-INV,10,A,lodnum,0,,"",1,0,,0,0,,"",0,0,0
VAR-CREATE-RCV-INV,10,A,lotnum,0,,"",1,0,,0,0,,"",0,0,0
VAR-CREATE-RCV-INV,10,A,mandte,0,,"",1,0,,0,0,,"",0,0,0
VAR-CREATE-RCV-INV,10,A,ordnum,0,,"",1,0,,0,0,,"",0,0,0
VAR-CREATE-RCV-INV,10,A,pallet_pattern,18,,"",1,0,,0,0,,"",0,0,0
VAR-CREATE-RCV-INV,10,A,prtnum,0,,"",1,0,,0,0,,"",0,0,0
VAR-CREATE-RCV-INV,10,A,stoloc,0,,"",1,0,,0,0,,"",0,0,0
VAR-CREATE-RCV-INV,10,A,subnum,0,,"",1,0,,0,0,,"",0,0,0
VAR-CREATE-RCV-INV,10,A,trknum,0,,"",1,0,,0,0,,"",0,0,0
VAR-CREATE-RCV-INV,10,A,untqty,0,,"",1,0,,0,0,,"",0,0,0
VAR-CREATE-RCV-INV,10,A,weight,14,,"",1,0,,0,0,,"",0,0,0
VAR-CREATE-RCV-INV,10,A,wh_id,16,,"",1,0,,0,0,,"",0,0,0
VAR-CREATE-RCV-INV,10,D,arecod,1,,"",1,0,,0,0,,"",0,0,0
VAR-CREATE-RCV-INV,10,D,code_dte,14,,"",1,0,,0,0,,"",0,0,0
VAR-CREATE-RCV-INV,10,D,dtlnum,4,,"",1,0,,0,0,,"",0,0,0
VAR-CREATE-RCV-INV,10,D,expire_dte,10,,"",1,0,,0,0,,"",0,0,0
VAR-CREATE-RCV-INV,10,D,invsts,7,,"",1,0,,0,0,,"",0,0,0
VAR-CREATE-RCV-INV,10,D,lodnum,2,,"",1,0,,0,0,,"",0,0,0
VAR-CREATE-RCV-INV,10,D,lotnum,8,,"",1,0,,0,0,,"",0,0,0
VAR-CREATE-RCV-INV,10,D,mandte,9,,"",1,0,,0,0,,"",0,0,0
VAR-CREATE-RCV-INV,10,D,prtnum,5,,"",1,0,,0,0,,"",0,0,0
VAR-CREATE-RCV-INV,10,D,stoloc,0,,"",1,0,,0,0,,"",0,0,0
VAR-CREATE-RCV-INV,10,D,subnum,3,,"",1,0,,0,0,,"",0,0,0
VAR-CREATE-RCV-INV,10,D,trknum,11,,"",1,0,,0,0,,"",0,0,0
VAR-CREATE-RCV-INV,10,D,untqty,6,,"",1,0,,0,0,,"",0,0,0
VAR-CREATE-RCV-INV,10,D,weight,12,,"",1,0,,0,0,,"",0,0,0
VAR-CREATE-RCV-INV,10,D,wh_id,13,,"",1,0,,0,0,,"",0,0,0
VAR-CREATE-RCV-INV,10,S,code_dte,7,,"",1,0,,0,0,,"",0,0,0
VAR-CREATE-RCV-INV,10,S,expire_dte,6,,"",1,0,,0,0,,"",0,0,0
VAR-CREATE-RCV-INV,10,S,invsts,3,,"",1,1,,0,0,,"",0,0,0
VAR-CREATE-RCV-INV,10,S,lodnum,0,,"",1,0,,0,0,,"",0,0,0
VAR-CREATE-RCV-INV,10,S,lotnum,8,,"",1,0,,0,0,,"",0,0,0
VAR-CREATE-RCV-INV,10,S,pallet_pattern,9,,"",1,0,,0,0,,"",0,0,0
VAR-CREATE-RCV-INV,10,S,prtnum,2,,"",1,1,,0,0,,"",0,0,0
VAR-CREATE-RCV-INV,10,S,trknum,1,,"",1,1,,0,0,,"",0,0,0
VAR-CREATE-RCV-INV,10,S,untqty,4,,"",1,1,,0,0,,"",0,0,0
VAR-CREATE-RCV-INV,10,S,weight,5,,"",1,0,,0,0,,"",0,0,0
VAR-CREATE-RCV-INV,10,S,wh_id,10,,"",1,0,,0,0,,"",0,0,0
