dda_id,cust_lvl,dda_fld_typ,var_nam,srtseq,link_dda_id,link_flds,ena_flg,rqdflg,grp_nam,dflt_flg,dspl_only_flg,fltr_grp,ctxt_flds,pk_fld_flg,pk_layout_flg,aggr_func
VAR-SCHBAT-STS,10,A,car_move_id,0,,"",1,0,,0,0,,"",0,0,0
VAR-SCHBAT-STS,10,A,close_dte,0,,"",1,0,,0,0,,"",0,0,0
VAR-SCHBAT-STS,10,A,schbat,0,,"",1,0,,0,0,,"",0,0,0
VAR-SCHBAT-STS,10,A,shipments,4,,"",1,0,,0,0,,"",0,0,0
VAR-SCHBAT-STS,10,A,trlr_id,0,,"",1,0,,0,0,,"",0,0,0
VAR-SCHBAT-STS,10,D,schbat,0,,"",1,0,,0,0,,"",0,0,0
VAR-SCHBAT-STS,10,D,shipments,1,VAR-SCHBAT-SHP-STS,"car_move_id,close_dte,schbat,trlr_id,shipments",1,0,,0,0,,"shipments",0,0,0
VAR-SCHBAT-STS,10,S,car_move_id,0,,"",1,0,,0,0,,"",0,1,0
VAR-SCHBAT-STS,10,S,schbat,1,,"",1,0,,0,0,,"",0,1,0
