dda_id,cust_lvl,dda_fld_typ,var_nam,srtseq,link_dda_id,link_flds,ena_flg,rqdflg,grp_nam,dflt_flg,dspl_only_flg,fltr_grp,ctxt_flds,pk_fld_flg,pk_layout_flg,aggr_func
vc-rcv-pltfrm-add,10,S,client_id,3,,"",1,1,HOPWLL-199,1,1,,"",0,0,0
vc-rcv-pltfrm-add,10,S,invnum,2,,"",1,1,HOPWLL-199,1,1,,"",0,0,0
vc-rcv-pltfrm-add,10,S,platform_qty,6,,"",1,1,HOPWLL-199,0,0,,"",0,0,0
vc-rcv-pltfrm-add,10,S,prtnum,5,,"",1,1,HOPWLL-199,0,0,,"",0,0,0
vc-rcv-pltfrm-add,10,S,trknum,1,,"",1,1,HOPWLL-199,1,1,,"",0,0,0
vc-rcv-pltfrm-add,10,S,trlr_id,0,,"",1,1,HOPWLL-199,1,1,,"",0,0,0
vc-rcv-pltfrm-add,10,S,wh_id,4,,"",1,1,HOPWLL-199,1,1,,"",0,0,0
