opt_nam,ath_typ,ath_id,pmsn_mask,grp_nam
UC-HALF-FULL-CHEP,R,DCS_SUPER,-1,
UC-HALF-FULL-CHEP,R,IC MANAGER,-1,
UC-HALF-FULL-CHEP,R,INT_SUPER,-1,
UC-HALF-FULL-CHEP,R,MANAGER,-1,
UC-HALF-FULL-CHEP,R,SUPER,-1,
UC-HALF-FULL-CHEP,R,SUPERVISOR,-1,
UC-HALF-FULL-CHEP,R,WHSE OP,-1,
UC-HALF-FULL-CHEP,U,SUPER,-1,
