var_nam,appl_id,frm_id,addon_id,cust_lvl,valdt_cmd,ena_flg,ret_fld_flg,ret_fld,grp_nam
code_dte,ddamgtopr,VAR-CREATE-RCV-INV,3pl,WM,SEAMLES,10,"validate var lotnum where lotnum = '&code_dte'
|
parse var lot format
     where prtnum = '&prtnum'
       and lotnum = '&code_dte'
       and invsts =  '&invsts'
       and wh_id = '&wh_id'
|
check var dates where mandte = @mandte and prtnum = @prtnum and expire_dte = @expire_dte",1,0,"",A
weight,ddamgtopr,VAR-CREATE-RCV-INV,3pl,WM,SEAMLES,10,"[select rtnum1
       from poldat_view
      where polcod = 'VAR'
        and polvar = 'VAR-WGT'
        and polval = 'TOLERANCE'
        and wh_id = '&wh_id'
        and rownum < 2]
|
if('&weight' > 0)
{
 [select abs(netwgt*'&untqty'/35.274 - '&weight')/(netwgt*'&untqty' / 35.274)*100 diffr from prtmst_view where prtnum = '&prtnum' and prt_client_id = 'KRAFT' and wh_id = '&wh_id' and rownum < 2] catch(@?)
}
else
{
 publish data where diffr = 100
}
|
if(@diffr > @rtnum1)
{
 set return status
         where status = 90002
}",1,0,"",A
